   ------------------------------------------------------------
  | Welcome to ROOT 6.04/16                http://root.cern.ch |
  |                               (c) 1995-2014, The ROOT Team |
  | Built for linuxx8664gcc                                    |
  | From tag v6-04-16, 17 March 2016                           |
  | Try '.help', '.demo', '.license', '.credits', '.quit'/'.q' |
   ------------------------------------------------------------


Processing macros/runSig.C+("/afs/cern.ch/work/d/ddu/HiggsCouplingProspectCombSummer2018/ttHworkspace/v0/combWS_ttH_bbdilep_HLLLHC_3000000.0_xsScaled_v2.root","combined","ModelConfig","obsData","asimovData_1","conditionalGlobs_1","nominalGlobs","125","signif")...

[1mRooFit v3.60 -- Developed by Wouter Verkerke and David Kirkby[0m 
                Copyright (C) 2000-2013 NIKHEF, University of California & Stanford University
                All rights reserved, please read http://roofit.sourceforge.net/license.txt

  1) 0x51ea640 RooRealVar::                              ATLAS_BR_Others = 0  L(-5 - 5)  "ATLAS_BR_Others"
  2) 0x51ad5f0 RooRealVar::                                  ATLAS_BR_WW = 0  L(-5 - 5)  "ATLAS_BR_WW"
  3) 0x4fd2f50 RooRealVar::                                  ATLAS_BR_bb = 0  L(-5 - 5)  "ATLAS_BR_bb"
  4) 0x5107ba0 RooRealVar::                               ATLAS_EL_SF_ID = 0  L(-5 - 5)  "ATLAS_EL_SF_ID"
  5) 0x5341e30 RooRealVar::                                 ATLAS_EM_RES = 0  L(-5 - 5)  "ATLAS_EM_RES"
  6) 0x5ae2740 RooRealVar::                               ATLAS_EM_SCALE = 0  L(-5 - 5)  "ATLAS_EM_SCALE"
  7) 0x507f290 RooRealVar::                                ATLAS_FTAG_B0 = 0  L(-5 - 5)  "ATLAS_FTAG_B0"
  8) 0x51b0410 RooRealVar::                                ATLAS_FTAG_B1 = 0  L(-5 - 5)  "ATLAS_FTAG_B1"
  9) 0x5a9b6b0 RooRealVar::                               ATLAS_FTAG_B10 = 0  L(-5 - 5)  "ATLAS_FTAG_B10"
 10) 0x51e0a40 RooRealVar::                                ATLAS_FTAG_B2 = 0  L(-5 - 5)  "ATLAS_FTAG_B2"
 11) 0x55e2eb0 RooRealVar::                               ATLAS_FTAG_B22 = 0  L(-5 - 5)  "ATLAS_FTAG_B22"
 12) 0x5321a70 RooRealVar::                               ATLAS_FTAG_B27 = 0  L(-5 - 5)  "ATLAS_FTAG_B27"
 13) 0x5ca5b60 RooRealVar::                                ATLAS_FTAG_B3 = 0  L(-5 - 5)  "ATLAS_FTAG_B3"
 14) 0x5a962c0 RooRealVar::                                ATLAS_FTAG_B4 = 0  L(-5 - 5)  "ATLAS_FTAG_B4"
 15) 0x5ad6ab0 RooRealVar::                                ATLAS_FTAG_B5 = 0  L(-5 - 5)  "ATLAS_FTAG_B5"
 16) 0x5ad94e0 RooRealVar::                                ATLAS_FTAG_B6 = 0  L(-5 - 5)  "ATLAS_FTAG_B6"
 17) 0x5adbf10 RooRealVar::                                ATLAS_FTAG_B7 = 0  L(-5 - 5)  "ATLAS_FTAG_B7"
 18) 0x5a98c80 RooRealVar::                                ATLAS_FTAG_B8 = 0  L(-5 - 5)  "ATLAS_FTAG_B8"
 19) 0x51ed4f0 RooRealVar::                                ATLAS_FTAG_C0 = 0  L(-5 - 5)  "ATLAS_FTAG_C0"
 20) 0x51e77e0 RooRealVar::                                ATLAS_FTAG_C1 = 0  L(-5 - 5)  "ATLAS_FTAG_C1"
 21) 0x52d3a60 RooRealVar::                                ATLAS_FTAG_C2 = 0  L(-5 - 5)  "ATLAS_FTAG_C2"
 22) 0x522e8e0 RooRealVar::                                ATLAS_FTAG_C3 = 0  L(-5 - 5)  "ATLAS_FTAG_C3"
 23) 0x59af700 RooRealVar::                                ATLAS_FTAG_C4 = 0  L(-5 - 5)  "ATLAS_FTAG_C4"
 24) 0x51f63a0 RooRealVar::                                ATLAS_FTAG_L0 = 0  L(-5 - 5)  "ATLAS_FTAG_L0"
 25) 0x53277c0 RooRealVar::                                ATLAS_FTAG_L1 = 0  L(-5 - 5)  "ATLAS_FTAG_L1"
 26) 0x59b6bb0 RooRealVar::                               ATLAS_FTAG_L10 = 0  L(-5 - 5)  "ATLAS_FTAG_L10"
 27) 0x5ae5180 RooRealVar::                               ATLAS_FTAG_L11 = 0  L(-5 - 5)  "ATLAS_FTAG_L11"
 28) 0x5ae7bc0 RooRealVar::                               ATLAS_FTAG_L12 = 0  L(-5 - 5)  "ATLAS_FTAG_L12"
 29) 0x55d6db0 RooRealVar::                               ATLAS_FTAG_L13 = 0  L(-5 - 5)  "ATLAS_FTAG_L13"
 30) 0x5b4e350 RooRealVar::                               ATLAS_FTAG_L16 = 0  L(-5 - 5)  "ATLAS_FTAG_L16"
 31) 0x5b50d90 RooRealVar::                               ATLAS_FTAG_L17 = 0  L(-5 - 5)  "ATLAS_FTAG_L17"
 32) 0x5331100 RooRealVar::                                ATLAS_FTAG_L2 = 0  L(-5 - 5)  "ATLAS_FTAG_L2"
 33) 0x55758b0 RooRealVar::                                ATLAS_FTAG_L3 = 0  L(-5 - 5)  "ATLAS_FTAG_L3"
 34) 0x5339620 RooRealVar::                                ATLAS_FTAG_L4 = 0  L(-5 - 5)  "ATLAS_FTAG_L4"
 35) 0x59ac200 RooRealVar::                                ATLAS_FTAG_L5 = 0  L(-5 - 5)  "ATLAS_FTAG_L5"
 36) 0x533f020 RooRealVar::                                ATLAS_FTAG_L6 = 0  L(-5 - 5)  "ATLAS_FTAG_L6"
 37) 0x59b2c70 RooRealVar::                                ATLAS_FTAG_L8 = 0  L(-5 - 5)  "ATLAS_FTAG_L8"
 38) 0x5b34390 RooRealVar::                                ATLAS_FTAG_L9 = 0  L(-5 - 5)  "ATLAS_FTAG_L9"
 39) 0x4ffada0 RooRealVar::                                    ATLAS_JER = 0  L(-5 - 5)  "ATLAS_JER"
 40) 0x53300b0 RooRealVar::                             ATLAS_JER_CRs_bb = 0  L(-5 - 5)  "ATLAS_JER_CRs_bb"
 41) 0x51e38a0 RooRealVar::                               ATLAS_JES_BJES = 0  L(-5 - 5)  "ATLAS_JES_BJES"
 42) 0x4fef420 RooRealVar::                      ATLAS_JES_EffectiveNP_1 = 0  L(-5 - 5)  "ATLAS_JES_EffectiveNP_1"
 43) 0x509e8f0 RooRealVar::                      ATLAS_JES_EffectiveNP_2 = 0  L(-5 - 5)  "ATLAS_JES_EffectiveNP_2"
 44) 0x4fb7400 RooRealVar::                     ATLAS_JES_EtaInter_Model = 0  L(-5 - 5)  "ATLAS_JES_EtaInter_Model"
 45) 0x51f3410 RooRealVar::                ATLAS_JES_EtaInter_NonClosure = 0  L(-5 - 5)  "ATLAS_JES_EtaInter_NonClosure"
 46) 0x51d7b10 RooRealVar::                      ATLAS_JES_EtaInter_Stat = 0  L(-5 - 5)  "ATLAS_JES_EtaInter_Stat"
 47) 0x51a68d0 RooRealVar::                        ATLAS_JES_Flavor_Comp = 0  L(-5 - 5)  "ATLAS_JES_Flavor_Comp"
 48) 0x50be470 RooRealVar::                        ATLAS_JES_Flavor_Resp = 0  L(-5 - 5)  "ATLAS_JES_Flavor_Resp"
 49) 0x533c490 RooRealVar::                        ATLAS_JES_PU_OffsetMu = 0  L(-5 - 5)  "ATLAS_JES_PU_OffsetMu"
 50) 0x50a46a0 RooRealVar::                       ATLAS_JES_PU_OffsetNPV = 0  L(-5 - 5)  "ATLAS_JES_PU_OffsetNPV"
 51) 0x4fdc7d0 RooRealVar::                             ATLAS_JES_PU_Rho = 0  L(-5 - 5)  "ATLAS_JES_PU_Rho"
 52) 0x51aa860 RooRealVar::                                    ATLAS_JVT = 0  L(-5 - 5)  "ATLAS_JVT"
 53) 0x532a610 RooRealVar::                        ATLAS_MET_SoftResPara = 0  L(-5 - 5)  "ATLAS_MET_SoftResPara"
 54) 0x532d520 RooRealVar::                        ATLAS_MET_SoftResPerp = 0  L(-5 - 5)  "ATLAS_MET_SoftResPerp"
 55) 0x5344ca0 RooRealVar::                                  ATLAS_MU_ID = 0  L(-5 - 5)  "ATLAS_MU_ID"
 56) 0x5345f00 RooRealVar::                                  ATLAS_MU_MS = 0  L(-5 - 5)  "ATLAS_MU_MS"
 57) 0x599ec90 RooRealVar::                               ATLAS_MU_SCALE = 0  L(-5 - 5)  "ATLAS_MU_SCALE"
 58) 0x53248b0 RooRealVar::                          ATLAS_MU_SF_ID_Syst = 0  L(-5 - 5)  "ATLAS_MU_SF_ID_Syst"
 59) 0x4fc8500 RooRealVar::                             ATLAS_PRW_DATASF = 0  L(-5 - 5)  "ATLAS_PRW_DATASF"
 60) 0x4f1c240 RooRealVar::                                   ATLAS_lumi = 0  L(-5 - 5)  "ATLAS_lumi"
 61) 0x51c7c40 RooRealVar::                                   Diboson_XS = 0  L(-5 - 5)  "Diboson_XS"
 62) 0x51a7980 RooRealVar::                        Fakes2L_norm_tthbbdil = 0  L(-5 - 5)  "Fakes2L_norm_tthbbdil"
 63) 0x50a1840 RooRealVar::                                WtH_XS_PDFunc = 0  L(-5 - 5)  "WtH_XS_PDFunc"
 64) 0x4fdda90 RooRealVar::                              WtH_XS_QCDscale = 0  L(-5 - 5)  "WtH_XS_QCDscale"
 65) 0x511d150 RooRealVar::                                       WtZ_XS = 0  L(-5 - 5)  "WtZ_XS"
 66) 0x4fbb360 RooRealVar::                                  Wt_DS_tthbb = 0  L(-5 - 5)  "Wt_DS_tthbb"
 67) 0x509bac0 RooRealVar::                                  Wt_PS_tthbb = 0  L(-5 - 5)  "Wt_PS_tthbb"
 68) 0x5098c50 RooRealVar::                                 Wt_Rad_tthbb = 0  L(-5 - 5)  "Wt_Rad_tthbb"
 69) 0x51e6720 RooRealVar::                         Zjets_XS_3j_tthbbdil = 0  L(-5 - 5)  "Zjets_XS_3j_tthbbdil"
 70) 0x51b1470 RooRealVar::                       Zjets_XS_ge4j_tthbbdil = 0  L(-5 - 5)  "Zjets_XS_ge4j_tthbbdil"
 71) 0x52de520 RooRealVar::   gamma_stat_dilep_BDT_SR1_4j_bin_0_tthbbdil = 1  L(0 - 1.12339)  "gamma_stat_dilep_BDT_SR1_4j_bin_0"
 72) 0x52e1c30 RooRealVar::   gamma_stat_dilep_BDT_SR1_4j_bin_1_tthbbdil = 1  L(0 - 1.15155)  "gamma_stat_dilep_BDT_SR1_4j_bin_1"
 73) 0x52e52e0 RooRealVar::   gamma_stat_dilep_BDT_SR1_4j_bin_2_tthbbdil = 1  L(0 - 1.26957)  "gamma_stat_dilep_BDT_SR1_4j_bin_2"
 74) 0x52e8990 RooRealVar::   gamma_stat_dilep_BDT_SR1_4j_bin_3_tthbbdil = 1  L(0 - 1.21399)  "gamma_stat_dilep_BDT_SR1_4j_bin_3"
 75) 0x4f24650 RooRealVar::   gamma_stat_dilep_BDT_SR2_4j_bin_0_tthbbdil = 1  L(0 - 1.18286)  "gamma_stat_dilep_BDT_SR2_4j_bin_0"
 76) 0x4f39a50 RooRealVar::   gamma_stat_dilep_BDT_SR2_4j_bin_1_tthbbdil = 1  L(0 - 1.21171)  "gamma_stat_dilep_BDT_SR2_4j_bin_1"
 77) 0x4f43030 RooRealVar::   gamma_stat_dilep_BDT_SR2_4j_bin_2_tthbbdil = 1  L(0 - 1.19917)  "gamma_stat_dilep_BDT_SR2_4j_bin_2"
 78) 0x4f465f0 RooRealVar::   gamma_stat_dilep_BDT_SR2_4j_bin_3_tthbbdil = 1  L(0 - 1.22188)  "gamma_stat_dilep_BDT_SR2_4j_bin_3"
 79) 0x4f49c40 RooRealVar::   gamma_stat_dilep_BDT_SR2_4j_bin_4_tthbbdil = 1  L(0 - 1.22521)  "gamma_stat_dilep_BDT_SR2_4j_bin_4"
 80) 0x4f4d290 RooRealVar::   gamma_stat_dilep_BDT_SR2_4j_bin_5_tthbbdil = 1  L(0 - 1.23116)  "gamma_stat_dilep_BDT_SR2_4j_bin_5"
 81) 0x4f508e0 RooRealVar::   gamma_stat_dilep_BDT_SR2_4j_bin_6_tthbbdil = 1  L(0 - 1.42008)  "gamma_stat_dilep_BDT_SR2_4j_bin_6"
 82) 0x4f53f30 RooRealVar::   gamma_stat_dilep_BDT_SR2_4j_bin_7_tthbbdil = 1  L(0 - 1.58048)  "gamma_stat_dilep_BDT_SR2_4j_bin_7"
 83) 0x4f8f8b0 RooRealVar::   gamma_stat_dilep_BDT_SR3_4j_bin_0_tthbbdil = 1  L(0 - 1.09342)  "gamma_stat_dilep_BDT_SR3_4j_bin_0"
 84) 0x4f918e0 RooRealVar::   gamma_stat_dilep_BDT_SR3_4j_bin_1_tthbbdil = 1  L(0 - 1.11171)  "gamma_stat_dilep_BDT_SR3_4j_bin_1"
 85) 0x4f94f90 RooRealVar::   gamma_stat_dilep_BDT_SR3_4j_bin_2_tthbbdil = 1  L(0 - 1.13656)  "gamma_stat_dilep_BDT_SR3_4j_bin_2"
 86) 0x4f985e0 RooRealVar::   gamma_stat_dilep_BDT_SR3_4j_bin_3_tthbbdil = 1  L(0 - 1.13236)  "gamma_stat_dilep_BDT_SR3_4j_bin_3"
 87) 0x4f9bc30 RooRealVar::   gamma_stat_dilep_BDT_SR3_4j_bin_4_tthbbdil = 1  L(0 - 1.14091)  "gamma_stat_dilep_BDT_SR3_4j_bin_4"
 88) 0x4f9f280 RooRealVar::   gamma_stat_dilep_BDT_SR3_4j_bin_5_tthbbdil = 1  L(0 - 1.15454)  "gamma_stat_dilep_BDT_SR3_4j_bin_5"
 89) 0x4fa28d0 RooRealVar::   gamma_stat_dilep_BDT_SR3_4j_bin_6_tthbbdil = 1  L(0 - 1.18132)  "gamma_stat_dilep_BDT_SR3_4j_bin_6"
 90) 0x4fa5f20 RooRealVar::   gamma_stat_dilep_BDT_SR3_4j_bin_7_tthbbdil = 1  L(0 - 1.18236)  "gamma_stat_dilep_BDT_SR3_4j_bin_7"
 91) 0x4fea030 RooRealVar:: gamma_stat_dilep_HTall_CR2_3j_bin_0_tthbbdil = 1  L(0 - 1.0632)  "gamma_stat_dilep_HTall_CR2_3j_bin_0"
 92) 0x4fb84b0 RooRealVar::                              singletop_Wt_XS = 0  L(-5 - 5)  "singletop_Wt_XS"
 93) 0x51f0350 RooRealVar::                               tHjb_XS_PDFunc = 0  L(-5 - 5)  "tHjb_XS_PDFunc"
 94) 0x4fc95b0 RooRealVar::                             tHjb_XS_QCDscale = 0  L(-5 - 5)  "tHjb_XS_QCDscale"
 95) 0x5169440 RooRealVar::                             tZjb_XS_QCDscale = 0  L(-5 - 5)  "tZjb_XS_QCDscale"
 96) 0x4ffbdf0 RooRealVar::                                      tt3b_XS = 0  L(-5 - 5)  "tt3b_XS"
 97) 0x4f8b430 RooRealVar::                                       ttH_PS = 0  L(-5 - 5)  "ttH_PS"
 98) 0x4f1e260 RooRealVar::                                ttH_XS_PDFunc = 0  L(-5 - 5)  "ttH_XS_PDFunc"
 99) 0x4f1d210 RooRealVar::                              ttH_XS_QCDscale = 0  L(-5 - 5)  "ttH_XS_QCDscale"
100) 0x52d68c0 RooRealVar::                             ttWW_XS_QCDscale = 0  L(-5 - 5)  "ttWW_XS_QCDscale"
101) 0x50bb6e0 RooRealVar::                                      ttW_Gen = 0  L(-5 - 5)  "ttW_Gen"
102) 0x50b8670 RooRealVar::                                ttW_XS_PDFunc = 0  L(-5 - 5)  "ttW_XS_PDFunc"
103) 0x50a5750 RooRealVar::                              ttW_XS_QCDscale = 0  L(-5 - 5)  "ttW_XS_QCDscale"
104) 0x57dece0 RooRealVar::                                      ttZ_Gen = 0  L(-5 - 5)  "ttZ_Gen"
105) 0x4fb45a0 RooRealVar::                                ttZ_XS_PDFunc = 0  L(-5 - 5)  "ttZ_XS_PDFunc"
106) 0x4fb16f0 RooRealVar::                              ttZ_XS_QCDscale = 0  L(-5 - 5)  "ttZ_XS_QCDscale"
107) 0x4ff04d0 RooRealVar::                                        tt_XS = 0  L(-5 - 5)  "tt_XS"
108) 0x5053c90 RooRealVar::                                ttb_4F5Fshape = 0  L(-5 - 5)  "ttb_4F5Fshape"
109) 0x5b7a370 RooRealVar::                                  ttb_CSS_KIN = 0  L(-5 - 5)  "ttb_CSS_KIN"
110) 0x5017990 RooRealVar::                                      ttb_Gen = 0  L(-5 - 5)  "ttb_Gen"
111) 0x55bef30 RooRealVar::                                      ttb_MPI = 0  L(-5 - 5)  "ttb_MPI"
112) 0x564ce70 RooRealVar::                               ttb_MPI_factor = 0  L(-5 - 5)  "ttb_MPI_factor"
113) 0x5059af0 RooRealVar::                                       ttb_PS = 0  L(-5 - 5)  "ttb_PS"
114) 0x5b7cd40 RooRealVar::                                  ttb_Q_CMMPS = 0  L(-5 - 5)  "ttb_Q_CMMPS"
115) 0x5056dc0 RooRealVar::                                      ttb_Rad = 0  L(-5 - 5)  "ttb_Rad"
116) 0x5b7f730 RooRealVar::                                  ttb_glosoft = 0  L(-5 - 5)  "ttb_glosoft"
117) 0x5645630 RooRealVar::                                     ttb_norm = 1  L(-5 - 5)  "ttb_norm"
118) 0x5b82120 RooRealVar::                              ttb_scalechoice = 0  L(-5 - 5)  "ttb_scalechoice"
119) 0x4ff1520 RooRealVar::                                      ttc_Gen = 0  L(-5 - 5)  "ttc_Gen"
120) 0x52d0cd0 RooRealVar::                                     ttc_MERW = 0  L(-5 - 5)  "ttc_MERW"
121) 0x526da90 RooRealVar::                                       ttc_PS = 0  L(-5 - 5)  "ttc_PS"
122) 0x51f9200 RooRealVar::                                      ttc_Rad = 0  L(-5 - 5)  "ttc_Rad"
123) 0x5214b50 RooRealVar::                                     ttc_norm = 1  L(-5 - 5)  "ttc_norm"
124) 0x50bf520 RooRealVar::                                  ttlight_Gen = 0  L(-5 - 5)  "ttlight_Gen"
125) 0x5104df0 RooRealVar::                                   ttlight_PS = 0  L(-5 - 5)  "ttlight_PS"
126) 0x5101fd0 RooRealVar::                                  ttlight_Rad = 0  L(-5 - 5)  "ttlight_Rad"
127) 0x5108bf0 RooRealVar::                                      tttt_XS = 0  L(-5 - 5)  "tttt_XS"
Setting max function calls
[#0] ERROR:ObjectHandling -- RooWorkspace::loadSnapshot(combined) no snapshot with name conditionalNuis_0 is available
[#1] INFO:Minization -- p.d.f. provides expected number of events, including extended term in likelihood.
[#1] INFO:Minization -- createNLL: caching constraint set under name CONSTR_OF_PDF_combPdf_FOR_OBS_master_measurement:obs_x_dilep_BDT_SR1_4j:obs_x_dilep_BDT_SR2_4j:obs_x_dilep_BDT_SR3_4j:obs_x_dilep_HTall_CR1_3j:obs_x_dilep_HTall_CR1_4j:obs_x_dilep_HTall_CR2_3j:obs_x_dilep_HTall_CR2_4j with 125 entries
[#1] INFO:Minization --  Including the following contraint terms in minimization: (ATLAS_lumiConstraint,ttH_XS_QCDscaleConstraint,ttH_XS_PDFuncConstraint,ATLAS_BR_bbConstraint,ttH_PSConstraint,ATLAS_PRW_DATASFConstraint,ATLAS_JERConstraint,ATLAS_JES_EffectiveNP_1Constraint,ATLAS_JES_PU_RhoConstraint,ATLAS_EL_SF_IDConstraint,ATLAS_FTAG_B0Constraint,ATLAS_FTAG_B1Constraint,ATLAS_FTAG_B2Constraint,ATLAS_FTAG_B5Constraint,ATLAS_FTAG_B27Constraint,ATLAS_JES_EtaInter_ModelConstraint,ATLAS_JES_EtaInter_NonClosureConstraint,ATLAS_JES_PU_OffsetNPVConstraint,ATLAS_BR_WWConstraint,ATLAS_MET_SoftResParaConstraint,ATLAS_MET_SoftResPerpConstraint,ATLAS_JES_BJESConstraint,ATLAS_JES_Flavor_CompConstraint,ATLAS_EM_RESConstraint,ATLAS_FTAG_C0Constraint,ATLAS_FTAG_C1Constraint,ATLAS_FTAG_C3Constraint,ATLAS_FTAG_L0Constraint,ATLAS_FTAG_L1Constraint,ATLAS_FTAG_L2Constraint,ATLAS_BR_OthersConstraint,ATLAS_JVTConstraint,ATLAS_FTAG_L3Constraint,tHjb_XS_QCDscaleConstraint,tHjb_XS_PDFuncConstraint,ATLAS_FTAG_B22Constraint,WtH_XS_QCDscaleConstraint,WtH_XS_PDFuncConstraint,tt_XSConstraint,ttlight_PSConstraint,ATLAS_EM_SCALEConstraint,ATLAS_FTAG_L4Constraint,ATLAS_FTAG_L5Constraint,ATLAS_FTAG_L6Constraint,ATLAS_FTAG_L8Constraint,ATLAS_FTAG_L13Constraint,ttc_GenConstraint,ttc_RadConstraint,ttc_PSConstraint,ttc_MERWConstraint,ATLAS_FTAG_C2Constraint,ATLAS_FTAG_L9Constraint,ATLAS_FTAG_L10Constraint,ATLAS_FTAG_L11Constraint,tt3b_XSConstraint,ttb_GenConstraint,ttb_RadConstraint,ttb_PSConstraint,ttb_CSS_KINConstraint,ttb_Q_CMMPSConstraint,ttb_glosoftConstraint,ttb_MPIConstraint,ttb_scalechoiceConstraint,ttb_4F5FshapeConstraint,ATLAS_FTAG_B4Constraint,ttZ_XS_QCDscaleConstraint,ttZ_XS_PDFuncConstraint,ttW_XS_QCDscaleConstraint,ttW_XS_PDFuncConstraint,ttW_GenConstraint,Zjets_XS_ge4j_tthbbdilConstraint,Diboson_XSConstraint,ATLAS_MU_SF_ID_SystConstraint,ATLAS_FTAG_B6Constraint,ATLAS_FTAG_B7Constraint,ATLAS_FTAG_B8Constraint,ATLAS_FTAG_B10Constraint,singletop_Wt_XSConstraint,Wt_DS_tthbbConstraint,Wt_Rad_tthbbConstraint,Wt_PS_tthbbConstraint,ATLAS_JES_EffectiveNP_2Constraint,ATLAS_JES_PU_OffsetMuConstraint,tttt_XSConstraint,WtZ_XSConstraint,Fakes2L_norm_tthbbdilConstraint,gamma_stat_dilep_BDT_SR1_4j_bin_0_constraint_tthbbdil,gamma_stat_dilep_BDT_SR1_4j_bin_1_constraint_tthbbdil,gamma_stat_dilep_BDT_SR1_4j_bin_2_constraint_tthbbdil,gamma_stat_dilep_BDT_SR1_4j_bin_3_constraint_tthbbdil,ATLAS_FTAG_B3Constraint,ATLAS_JES_Flavor_RespConstraint,ttlight_GenConstraint,ttlight_RadConstraint,ATLAS_JES_EtaInter_StatConstraint,ATLAS_FTAG_L12Constraint,ATLAS_FTAG_L16Constraint,ATLAS_FTAG_L17Constraint,ttWW_XS_QCDscaleConstraint,tZjb_XS_QCDscaleConstraint,ATLAS_MU_MSConstraint,gamma_stat_dilep_BDT_SR2_4j_bin_0_constraint_tthbbdil,gamma_stat_dilep_BDT_SR2_4j_bin_1_constraint_tthbbdil,gamma_stat_dilep_BDT_SR2_4j_bin_2_constraint_tthbbdil,gamma_stat_dilep_BDT_SR2_4j_bin_3_constraint_tthbbdil,gamma_stat_dilep_BDT_SR2_4j_bin_4_constraint_tthbbdil,gamma_stat_dilep_BDT_SR2_4j_bin_5_constraint_tthbbdil,gamma_stat_dilep_BDT_SR2_4j_bin_6_constraint_tthbbdil,gamma_stat_dilep_BDT_SR2_4j_bin_7_constraint_tthbbdil,ATLAS_MU_IDConstraint,ATLAS_MU_SCALEConstraint,gamma_stat_dilep_BDT_SR3_4j_bin_0_constraint_tthbbdil,gamma_stat_dilep_BDT_SR3_4j_bin_1_constraint_tthbbdil,gamma_stat_dilep_BDT_SR3_4j_bin_2_constraint_tthbbdil,gamma_stat_dilep_BDT_SR3_4j_bin_3_constraint_tthbbdil,gamma_stat_dilep_BDT_SR3_4j_bin_4_constraint_tthbbdil,gamma_stat_dilep_BDT_SR3_4j_bin_5_constraint_tthbbdil,gamma_stat_dilep_BDT_SR3_4j_bin_6_constraint_tthbbdil,gamma_stat_dilep_BDT_SR3_4j_bin_7_constraint_tthbbdil,ttb_MPI_factorConstraint,ttZ_GenConstraint,Zjets_XS_3j_tthbbdilConstraint,ATLAS_JER_CRs_bbConstraint,ATLAS_FTAG_C4Constraint,gamma_stat_dilep_HTall_CR2_3j_bin_0_constraint_tthbbdil)
[#1] INFO:Minization -- The following global observables have been defined: (nom_ATLAS_BR_Others,nom_ATLAS_BR_WW,nom_ATLAS_BR_bb,nom_ATLAS_EL_SF_ID,nom_ATLAS_EM_RES,nom_ATLAS_EM_SCALE,nom_ATLAS_FTAG_B0,nom_ATLAS_FTAG_B1,nom_ATLAS_FTAG_B10,nom_ATLAS_FTAG_B2,nom_ATLAS_FTAG_B22,nom_ATLAS_FTAG_B27,nom_ATLAS_FTAG_B3,nom_ATLAS_FTAG_B4,nom_ATLAS_FTAG_B5,nom_ATLAS_FTAG_B6,nom_ATLAS_FTAG_B7,nom_ATLAS_FTAG_B8,nom_ATLAS_FTAG_C0,nom_ATLAS_FTAG_C1,nom_ATLAS_FTAG_C2,nom_ATLAS_FTAG_C3,nom_ATLAS_FTAG_C4,nom_ATLAS_FTAG_L0,nom_ATLAS_FTAG_L1,nom_ATLAS_FTAG_L10,nom_ATLAS_FTAG_L11,nom_ATLAS_FTAG_L12,nom_ATLAS_FTAG_L13,nom_ATLAS_FTAG_L16,nom_ATLAS_FTAG_L17,nom_ATLAS_FTAG_L2,nom_ATLAS_FTAG_L3,nom_ATLAS_FTAG_L4,nom_ATLAS_FTAG_L5,nom_ATLAS_FTAG_L6,nom_ATLAS_FTAG_L8,nom_ATLAS_FTAG_L9,nom_ATLAS_JER,nom_ATLAS_JER_CRs_bb,nom_ATLAS_JES_BJES,nom_ATLAS_JES_EffectiveNP_1,nom_ATLAS_JES_EffectiveNP_2,nom_ATLAS_JES_EtaInter_Model,nom_ATLAS_JES_EtaInter_NonClosure,nom_ATLAS_JES_EtaInter_Stat,nom_ATLAS_JES_Flavor_Comp,nom_ATLAS_JES_Flavor_Resp,nom_ATLAS_JES_PU_OffsetMu,nom_ATLAS_JES_PU_OffsetNPV,nom_ATLAS_JES_PU_Rho,nom_ATLAS_JVT,nom_ATLAS_MET_SoftResPara,nom_ATLAS_MET_SoftResPerp,nom_ATLAS_MU_ID,nom_ATLAS_MU_MS,nom_ATLAS_MU_SCALE,nom_ATLAS_MU_SF_ID_Syst,nom_ATLAS_PRW_DATASF,nom_ATLAS_lumi,nom_Diboson_XS,nom_Fakes2L_norm_tthbbdil,nom_WtH_XS_PDFunc,nom_WtH_XS_QCDscale,nom_WtZ_XS,nom_Wt_DS_tthbb,nom_Wt_PS_tthbb,nom_Wt_Rad_tthbb,nom_Zjets_XS_3j_tthbbdil,nom_Zjets_XS_ge4j_tthbbdil,nom_gamma_stat_dilep_BDT_SR1_4j_bin_0_tthbbdil,nom_gamma_stat_dilep_BDT_SR1_4j_bin_1_tthbbdil,nom_gamma_stat_dilep_BDT_SR1_4j_bin_2_tthbbdil,nom_gamma_stat_dilep_BDT_SR1_4j_bin_3_tthbbdil,nom_gamma_stat_dilep_BDT_SR2_4j_bin_0_tthbbdil,nom_gamma_stat_dilep_BDT_SR2_4j_bin_1_tthbbdil,nom_gamma_stat_dilep_BDT_SR2_4j_bin_2_tthbbdil,nom_gamma_stat_dilep_BDT_SR2_4j_bin_3_tthbbdil,nom_gamma_stat_dilep_BDT_SR2_4j_bin_4_tthbbdil,nom_gamma_stat_dilep_BDT_SR2_4j_bin_5_tthbbdil,nom_gamma_stat_dilep_BDT_SR2_4j_bin_6_tthbbdil,nom_gamma_stat_dilep_BDT_SR2_4j_bin_7_tthbbdil,nom_gamma_stat_dilep_BDT_SR3_4j_bin_0_tthbbdil,nom_gamma_stat_dilep_BDT_SR3_4j_bin_1_tthbbdil,nom_gamma_stat_dilep_BDT_SR3_4j_bin_2_tthbbdil,nom_gamma_stat_dilep_BDT_SR3_4j_bin_3_tthbbdil,nom_gamma_stat_dilep_BDT_SR3_4j_bin_4_tthbbdil,nom_gamma_stat_dilep_BDT_SR3_4j_bin_5_tthbbdil,nom_gamma_stat_dilep_BDT_SR3_4j_bin_6_tthbbdil,nom_gamma_stat_dilep_BDT_SR3_4j_bin_7_tthbbdil,nom_gamma_stat_dilep_HTall_CR1_3j_bin_0_tthbbdil,nom_gamma_stat_dilep_HTall_CR1_4j_bin_0_tthbbdil,nom_gamma_stat_dilep_HTall_CR2_3j_bin_0_tthbbdil,nom_gamma_stat_dilep_HTall_CR2_4j_bin_0_tthbbdil,nom_singletop_Wt_XS,nom_tHjb_XS_PDFunc,nom_tHjb_XS_QCDscale,nom_tZjb_XS_QCDscale,nom_tt3b_XS,nom_ttH_PS,nom_ttH_XS_PDFunc,nom_ttH_XS_QCDscale,nom_ttWW_XS_QCDscale,nom_ttW_Gen,nom_ttW_XS_PDFunc,nom_ttW_XS_QCDscale,nom_ttZ_Gen,nom_ttZ_XS_PDFunc,nom_ttZ_XS_QCDscale,nom_tt_XS,nom_ttb_4F5Fshape,nom_ttb_CSS_KIN,nom_ttb_Gen,nom_ttb_MPI,nom_ttb_MPI_factor,nom_ttb_PS,nom_ttb_Q_CMMPS,nom_ttb_Rad,nom_ttb_glosoft,nom_ttb_scalechoice,nom_ttc_Gen,nom_ttc_MERW,nom_ttc_PS,nom_ttc_Rad,nom_ttlight_Gen,nom_ttlight_PS,nom_ttlight_Rad,nom_tttt_XS)
RooAbsTestStatistic::initSimMode: creating slave calculator #0 for state dilep_HTall_CR1_3j (1 dataset entries)
RooAbsTestStatistic::initSimMode: creating slave calculator #1 for state dilep_HTall_CR2_3j (1 dataset entries)
RooAbsTestStatistic::initSimMode: creating slave calculator #2 for state dilep_HTall_CR1_4j (1 dataset entries)
RooAbsTestStatistic::initSimMode: creating slave calculator #3 for state dilep_HTall_CR2_4j (1 dataset entries)
RooAbsTestStatistic::initSimMode: creating slave calculator #4 for state dilep_BDT_SR3_4j (8 dataset entries)
RooAbsTestStatistic::initSimMode: creating slave calculator #5 for state dilep_BDT_SR2_4j (8 dataset entries)
RooAbsTestStatistic::initSimMode: creating slave calculator #6 for state dilep_BDT_SR1_4j (4 dataset entries)
[#1] INFO:Fitting -- RooAbsTestStatistic::initSimMode: created 7 slave calculators.
[#0] ERROR:ObjectHandling -- RooWorkspace::loadSnapshot(combined) no snapshot with name conditionalNuis_0 is available
[#1] INFO:Fitting -- RooAddition::defaultErrorLevel(nll_combPdf_asimovData_1_with_constr) Summation contains a RooNLLVar, using its error level
Minuit2Minimizer: Minimize with max-calls 63500 convergence for edm < 1 strategy 1
[#1] INFO:Minization -- RooNLLVar::evaluatePartition(dilep_HTall_CR1_3j) first = 0 last = 1 Likelihood offset now set to 1.23572e+07
[#1] INFO:Minization -- RooNLLVar::evaluatePartition(dilep_HTall_CR2_3j) first = 0 last = 1 Likelihood offset now set to 241983
[#1] INFO:Minization -- RooNLLVar::evaluatePartition(dilep_HTall_CR1_4j) first = 0 last = 1 Likelihood offset now set to 9.13397e+06
[#1] INFO:Minization -- RooNLLVar::evaluatePartition(dilep_HTall_CR2_4j) first = 0 last = 1 Likelihood offset now set to 763286
[#1] INFO:Minization -- RooNLLVar::evaluatePartition(dilep_BDT_SR3_4j) first = 0 last = 8 Likelihood offset now set to 202298
[#1] INFO:Minization -- RooNLLVar::evaluatePartition(dilep_BDT_SR2_4j) first = 0 last = 8 Likelihood offset now set to 218178
[#1] INFO:Minization -- RooNLLVar::evaluatePartition(dilep_BDT_SR1_4j) first = 0 last = 4 Likelihood offset now set to 48925.5
MnSeedGenerator: for initial parameters FCN = 44.92648817912
MnSeedGenerator: Initial state:   - FCN =   44.92648817912 Edm =      2010.35 NCalls =    507 Dcovar =      1
VariableMetric: start iterating until Edm is < 0.001
VariableMetric: Initial state   - FCN =   44.92648817912 Edm =      2010.35 NCalls =    507 Dcovar =      1
VariableMetric: Iteration #   0 - FCN =   44.92648817912 Edm =      2010.35 NCalls =    507 Dcovar =      1
VariableMetric: Iteration #   1 - FCN =  -52.01063724596 Edm =      281.214 NCalls =    795 Dcovar = 0.516955
VariableMetric: Iteration #   2 - FCN =  -83.67448447962 Edm =      132.624 NCalls =   1053 Dcovar = 0.274901
VariableMetric: Iteration #   3 - FCN =  -120.6853787862 Edm =      42.0405 NCalls =   1309 Dcovar = 0.160011
VariableMetric: Iteration #   4 - FCN =   -130.546964255 Edm =      6.46852 NCalls =   1565 Dcovar = 0.092536
VariableMetric: Iteration #   5 - FCN =  -133.7551109905 Edm =      3.08301 NCalls =   1821 Dcovar = 0.0650952
VariableMetric: Iteration #   6 - FCN =  -134.9684009568 Edm =      1.65648 NCalls =   2077 Dcovar = 0.045486
VariableMetric: Iteration #   7 - FCN =  -135.2926656082 Edm =     0.325258 NCalls =   2333 Dcovar = 0.0411891
VariableMetric: Iteration #   8 - FCN =  -135.4038225644 Edm =     0.229119 NCalls =   2589 Dcovar = 0.0391119
VariableMetric: Iteration #   9 - FCN =  -135.6947272878 Edm =     0.136095 NCalls =   2845 Dcovar = 0.0488214
VariableMetric: Iteration #  10 - FCN =  -136.0901964406 Edm =     0.348853 NCalls =   3101 Dcovar = 0.0712958
VariableMetric: Iteration #  11 - FCN =  -136.3888944308 Edm =     0.119619 NCalls =   3357 Dcovar = 0.0725299
VariableMetric: Iteration #  12 - FCN =  -136.5672906107 Edm =    0.0445713 NCalls =   3613 Dcovar = 0.0606113
VariableMetric: Iteration #  13 - FCN =  -136.7480677876 Edm =    0.0628595 NCalls =   3869 Dcovar = 0.0933797
VariableMetric: Iteration #  14 - FCN =  -136.8815963712 Edm =    0.0197575 NCalls =   4125 Dcovar = 0.0817679
VariableMetric: Iteration #  15 - FCN =  -136.9324181979 Edm =    0.0152338 NCalls =   4381 Dcovar = 0.0916557
VariableMetric: Iteration #  16 - FCN =  -136.9699557677 Edm =   0.00774628 NCalls =   4637 Dcovar = 0.0949206
VariableMetric: Iteration #  17 - FCN =  -136.9977538288 Edm =   0.00830588 NCalls =   4893 Dcovar = 0.112346
VariableMetric: Iteration #  18 - FCN =  -137.0243864249 Edm =    0.0072307 NCalls =   5149 Dcovar = 0.109563
VariableMetric: Iteration #  19 - FCN =  -137.0561162059 Edm =    0.0133738 NCalls =   5405 Dcovar = 0.127034
VariableMetric: Iteration #  20 - FCN =  -137.1023068496 Edm =    0.0104594 NCalls =   5661 Dcovar = 0.126052
VariableMetric: Iteration #  21 - FCN =  -137.1449402347 Edm =    0.0135256 NCalls =   5917 Dcovar = 0.147578
VariableMetric: Iteration #  22 - FCN =  -137.1785927306 Edm =   0.00570373 NCalls =   6173 Dcovar = 0.13723
VariableMetric: Iteration #  23 - FCN =  -137.1967868543 Edm =   0.00539487 NCalls =   6429 Dcovar = 0.131245
VariableMetric: Iteration #  24 - FCN =  -137.2119152205 Edm =   0.00404912 NCalls =   6685 Dcovar = 0.114495
VariableMetric: Iteration #  25 - FCN =  -137.2254930245 Edm =   0.00458312 NCalls =   6941 Dcovar = 0.10933
VariableMetric: Iteration #  26 - FCN =   -137.239398848 Edm =   0.00446415 NCalls =   7197 Dcovar = 0.100717
VariableMetric: Iteration #  27 - FCN =  -137.2603775512 Edm =   0.00771038 NCalls =   7453 Dcovar = 0.119509
VariableMetric: Iteration #  28 - FCN =  -137.2796833616 Edm =   0.00428978 NCalls =   7709 Dcovar = 0.109237
VariableMetric: Iteration #  29 - FCN =  -137.2934992643 Edm =   0.00553001 NCalls =   7965 Dcovar = 0.112393
VariableMetric: Iteration #  30 - FCN =   -137.311269036 Edm =   0.00414314 NCalls =   8221 Dcovar = 0.122866
VariableMetric: Iteration #  31 - FCN =  -137.3202464673 Edm =   0.00246329 NCalls =   8477 Dcovar = 0.115724
VariableMetric: Iteration #  32 - FCN =  -137.3268021463 Edm =   0.00169973 NCalls =   8733 Dcovar = 0.108886
VariableMetric: Iteration #  33 - FCN =  -137.3317728439 Edm =   0.00199152 NCalls =   8989 Dcovar = 0.100155
VariableMetric: Iteration #  34 - FCN =  -137.3402959808 Edm =   0.00208105 NCalls =   9245 Dcovar = 0.107607
VariableMetric: Iteration #  35 - FCN =  -137.3503245863 Edm =   0.00408706 NCalls =   9501 Dcovar = 0.122226
VariableMetric: Iteration #  36 - FCN =    -137.36190877 Edm =   0.00190254 NCalls =   9757 Dcovar = 0.117517
VariableMetric: Iteration #  37 - FCN =  -137.3702809616 Edm =   0.00375986 NCalls =  10013 Dcovar = 0.122226
VariableMetric: Iteration #  38 - FCN =  -137.3846690753 Edm =   0.00354702 NCalls =  10269 Dcovar = 0.131812
VariableMetric: Iteration #  39 - FCN =  -137.3919786838 Edm =   0.00209431 NCalls =  10525 Dcovar = 0.11071
VariableMetric: Iteration #  40 - FCN =   -137.398046725 Edm =   0.00255091 NCalls =  10781 Dcovar = 0.105679
VariableMetric: Iteration #  41 - FCN =  -137.4114210861 Edm =   0.00484514 NCalls =  11037 Dcovar = 0.129672
VariableMetric: Iteration #  42 - FCN =  -137.4244291813 Edm =   0.00141106 NCalls =  11293 Dcovar = 0.127389
VariableMetric: Iteration #  43 - FCN =  -137.4284518199 Edm =   0.00138415 NCalls =  11549 Dcovar = 0.113307
VariableMetric: Iteration #  44 - FCN =  -137.4328829484 Edm =   0.00159726 NCalls =  11805 Dcovar = 0.117159
VariableMetric: Iteration #  45 - FCN =  -137.4387252982 Edm =   0.00253189 NCalls =  12061 Dcovar = 0.126347
VariableMetric: Iteration #  46 - FCN =   -137.445870387 Edm =   0.00283516 NCalls =  12317 Dcovar = 0.107402
VariableMetric: Iteration #  47 - FCN =  -137.4560874534 Edm =   0.00246534 NCalls =  12573 Dcovar = 0.12312
VariableMetric: Iteration #  48 - FCN =  -137.4608475407 Edm =    0.0011484 NCalls =  12829 Dcovar = 0.101945
VariableMetric: Iteration #  49 - FCN =  -137.4649807549 Edm =   0.00175116 NCalls =  13085 Dcovar = 0.0949956
VariableMetric: Iteration #  50 - FCN =  -137.4723069736 Edm =   0.00162901 NCalls =  13341 Dcovar = 0.10146
VariableMetric: Iteration #  51 - FCN =  -137.4769325941 Edm =   0.00211323 NCalls =  13597 Dcovar = 0.102056
VariableMetric: Iteration #  52 - FCN =  -137.4869381254 Edm =   0.00229681 NCalls =  13853 Dcovar = 0.122743
VariableMetric: Iteration #  53 - FCN =  -137.4907858048 Edm =   0.00104926 NCalls =  14109 Dcovar = 0.0889757
VariableMetric: Iteration #  54 - FCN =  -137.4958930801 Edm =   0.00257759 NCalls =  14365 Dcovar = 0.100777
VariableMetric: Iteration #  55 - FCN =  -137.5005918398 Edm =   0.00102422 NCalls =  14621 Dcovar = 0.0964567
VariableMetric: Iteration #  56 - FCN =  -137.5024925551 Edm =  0.000741262 NCalls =  14877 Dcovar = 0.0862421
VariableMetric: After Hessian   - FCN =  -137.5024925551 Edm =   0.00572943 NCalls =  23391 Dcovar =      1
VariableMetric: Iteration #  57 - FCN =  -137.5024925551 Edm =   0.00572943 NCalls =  23391 Dcovar =      1
VariableMetric: Iteration #  58 - FCN =  -137.5192233739 Edm =   0.00436324 NCalls =  23647 Dcovar = 0.565063
VariableMetric: Iteration #  59 - FCN =   -137.533662988 Edm =   0.00327586 NCalls =  23903 Dcovar = 0.344391
VariableMetric: Iteration #  60 - FCN =  -137.5490513185 Edm =    0.0038112 NCalls =  24159 Dcovar = 0.242511
VariableMetric: Iteration #  61 - FCN =  -137.5616678401 Edm =   0.00465871 NCalls =  24416 Dcovar = 0.185488
VariableMetric: Iteration #  62 - FCN =   -137.571758646 Edm =   0.00407622 NCalls =  24672 Dcovar = 0.14952
VariableMetric: Iteration #  63 - FCN =  -137.5828893339 Edm =   0.00468338 NCalls =  24929 Dcovar = 0.138799
VariableMetric: Iteration #  64 - FCN =  -137.5924868926 Edm =   0.00481711 NCalls =  25185 Dcovar = 0.132973
VariableMetric: Iteration #  65 - FCN =  -137.6023894952 Edm =   0.00562373 NCalls =  25442 Dcovar = 0.115125
VariableMetric: Iteration #  66 - FCN =  -137.6166246118 Edm =   0.00765968 NCalls =  25699 Dcovar = 0.113556
VariableMetric: Iteration #  67 - FCN =  -137.6324129035 Edm =    0.0162994 NCalls =  25956 Dcovar = 0.131437
VariableMetric: Iteration #  68 - FCN =  -137.6482869203 Edm =    0.0056018 NCalls =  26212 Dcovar = 0.117663
VariableMetric: Iteration #  69 - FCN =  -137.6613485068 Edm =   0.00734762 NCalls =  26469 Dcovar = 0.117097
VariableMetric: Iteration #  70 - FCN =   -137.665890211 Edm =   0.00347059 NCalls =  26725 Dcovar = 0.0957846
VariableMetric: Iteration #  71 - FCN =   -137.675599257 Edm =   0.00308479 NCalls =  26983 Dcovar = 0.11703
VariableMetric: Iteration #  72 - FCN =  -137.6878337278 Edm =   0.00432638 NCalls =  27240 Dcovar = 0.119621
VariableMetric: Iteration #  73 - FCN =  -137.6971560237 Edm =    0.0127867 NCalls =  27497 Dcovar = 0.115148
VariableMetric: Iteration #  74 - FCN =  -137.7056592792 Edm =   0.00442187 NCalls =  27753 Dcovar = 0.108269
VariableMetric: Iteration #  75 - FCN =  -137.7140464573 Edm =    0.0050107 NCalls =  28010 Dcovar = 0.100987
VariableMetric: Iteration #  76 - FCN =   -137.721243972 Edm =   0.00365164 NCalls =  28266 Dcovar = 0.116996
VariableMetric: Iteration #  77 - FCN =  -137.7266639941 Edm =   0.00339331 NCalls =  28523 Dcovar = 0.109574
VariableMetric: Iteration #  78 - FCN =  -137.7321557709 Edm =   0.00243932 NCalls =  28779 Dcovar = 0.119333
VariableMetric: Iteration #  79 - FCN =  -137.7366670939 Edm =    0.0029178 NCalls =  29036 Dcovar = 0.116361
VariableMetric: Iteration #  80 - FCN =  -137.7409485667 Edm =   0.00202279 NCalls =  29292 Dcovar = 0.125497
VariableMetric: Iteration #  81 - FCN =  -137.7442023217 Edm =   0.00119742 NCalls =  29549 Dcovar = 0.117535
VariableMetric: Iteration #  82 - FCN =  -137.7459261434 Edm =  0.000451495 NCalls =  29805 Dcovar = 0.110141
VariableMetric: After Hessian   - FCN =  -137.7459261434 Edm =  0.000398988 NCalls =  38319 Dcovar =      1
VariableMetric: Iteration #  83 - FCN =  -137.7459261434 Edm =  0.000398988 NCalls =  38319 Dcovar =      1
Minuit2Minimizer : Valid minimum - status = 1
FVAL  = -137.745926143399004
Edm   = 0.000398988457674971945
Nfcn  = 38319
ATLAS_BR_Others	  = 1.28838e-10	 +/-  0.980041	(limited)
ATLAS_BR_WW	  = 1.34919e-10	 +/-  0.980041	(limited)
ATLAS_BR_bb	  = 1.34555e-10	 +/-  0.980041	(limited)
ATLAS_EL_SF_ID	  = 0.00681531	 +/-  0.16362	(limited)
ATLAS_EM_RES	  = -0.00662496	 +/-  0.979341	(limited)
ATLAS_EM_SCALE	  = -0.0056493	 +/-  0.978119	(limited)
ATLAS_FTAG_B0	  = 0.0248641	 +/-  0.113011	(limited)
ATLAS_FTAG_B1	  = -0.0360275	 +/-  0.108057	(limited)
ATLAS_FTAG_B10	  = 0.00203158	 +/-  0.979692	(limited)
ATLAS_FTAG_B2	  = -0.0344271	 +/-  0.762134	(limited)
ATLAS_FTAG_B22	  = 0.000191957	 +/-  0.980039	(limited)
ATLAS_FTAG_B27	  = 0.00445493	 +/-  0.828505	(limited)
ATLAS_FTAG_B3	  = 1.05713e-10	 +/-  0.980041	(limited)
ATLAS_FTAG_B4	  = -0.0159986	 +/-  0.9388	(limited)
ATLAS_FTAG_B5	  = 0.0163611	 +/-  0.928081	(limited)
ATLAS_FTAG_B6	  = -0.00115717	 +/-  0.98002	(limited)
ATLAS_FTAG_B7	  = 0.00102825	 +/-  0.980024	(limited)
ATLAS_FTAG_B8	  = 0.00225986	 +/-  0.979576	(limited)
ATLAS_FTAG_C0	  = 0.0150119	 +/-  0.545274	(limited)
ATLAS_FTAG_C1	  = 0.00268517	 +/-  0.570473	(limited)
ATLAS_FTAG_C2	  = -0.0229591	 +/-  0.616042	(limited)
ATLAS_FTAG_C3	  = -0.00967197	 +/-  0.868312	(limited)
ATLAS_FTAG_C4	  = -1.8535e-06	 +/-  0.980043	(limited)
ATLAS_FTAG_L0	  = 0.230809	 +/-  0.07127	(limited)
ATLAS_FTAG_L1	  = -0.227455	 +/-  0.418909	(limited)
ATLAS_FTAG_L10	  = 0.00592582	 +/-  0.957599	(limited)
ATLAS_FTAG_L11	  = 0.0160506	 +/-  0.961657	(limited)
ATLAS_FTAG_L12	  = 0.00787886	 +/-  0.958801	(limited)
ATLAS_FTAG_L13	  = -0.00459653	 +/-  0.980021	(limited)
ATLAS_FTAG_L16	  = 0.00806248	 +/-  0.959829	(limited)
ATLAS_FTAG_L17	  = 0.00775112	 +/-  0.962646	(limited)
ATLAS_FTAG_L2	  = 0.207042	 +/-  0.347979	(limited)
ATLAS_FTAG_L3	  = 0.0993815	 +/-  0.462296	(limited)
ATLAS_FTAG_L4	  = 0.0407749	 +/-  0.467507	(limited)
ATLAS_FTAG_L5	  = 0.00638785	 +/-  0.931617	(limited)
ATLAS_FTAG_L6	  = -0.0162999	 +/-  0.857225	(limited)
ATLAS_FTAG_L8	  = 0.00319634	 +/-  0.941934	(limited)
ATLAS_FTAG_L9	  = 0.0108135	 +/-  0.978161	(limited)
ATLAS_JER	  = 0.160118	 +/-  0.404852	(limited)
ATLAS_JER_CRs_bb	  = 0.00447599	 +/-  0.440409	(limited)
ATLAS_JES_BJES	  = 0.0282882	 +/-  0.802818	(limited)
ATLAS_JES_EffectiveNP_1	  = -0.226373	 +/-  0.0666676	(limited)
ATLAS_JES_EffectiveNP_2	  = -0.00778783	 +/-  0.931463	(limited)
ATLAS_JES_EtaInter_Model	  = 0.0459606	 +/-  0.202152	(limited)
ATLAS_JES_EtaInter_NonClosure	  = -0.000907664	 +/-  0.962251	(limited)
ATLAS_JES_EtaInter_Stat	  = 0.00700701	 +/-  0.961996	(limited)
ATLAS_JES_Flavor_Comp	  = 0.0137449	 +/-  0.0426643	(limited)
ATLAS_JES_Flavor_Resp	  = -0.00456085	 +/-  0.15327	(limited)
ATLAS_JES_PU_OffsetMu	  = -0.000968005	 +/-  0.979818	(limited)
ATLAS_JES_PU_OffsetNPV	  = 0.0463406	 +/-  0.745078	(limited)
ATLAS_JES_PU_Rho	  = 0.0390297	 +/-  0.0459046	(limited)
ATLAS_JVT	  = 0.00308101	 +/-  0.97958	(limited)
ATLAS_MET_SoftResPara	  = 1.34919e-10	 +/-  0.980041	(limited)
ATLAS_MET_SoftResPerp	  = 1.34919e-10	 +/-  0.980041	(limited)
ATLAS_MU_ID	  = 0.000524905	 +/-  0.979895	(limited)
ATLAS_MU_MS	  = -0.00135308	 +/-  0.978496	(limited)
ATLAS_MU_SCALE	  = -0.000110065	 +/-  0.979951	(limited)
ATLAS_MU_SF_ID_Syst	  = -0.00095633	 +/-  0.979494	(limited)
ATLAS_PRW_DATASF	  = 0.0347791	 +/-  0.161544	(limited)
ATLAS_lumi	  = -0.0461155	 +/-  0.080497	(limited)
Diboson_XS	  = -0.0159023	 +/-  0.937909	(limited)
Fakes2L_norm_tthbbdil	  = 0.0670634	 +/-  0.506874	(limited)
WtH_XS_PDFunc	  = 0.00274505	 +/-  0.980071	(limited)
WtH_XS_QCDscale	  = 0.00166499	 +/-  0.979794	(limited)
WtZ_XS	  = 0.00232764	 +/-  0.980209	(limited)
Wt_DS_tthbb	  = -0.0286103	 +/-  0.225431	(limited)
Wt_PS_tthbb	  = -0.0284509	 +/-  0.387586	(limited)
Wt_Rad_tthbb	  = 0.0181795	 +/-  0.650851	(limited)
Zjets_XS_3j_tthbbdil	  = -0.0410518	 +/-  0.139917	(limited)
Zjets_XS_ge4j_tthbbdil	  = 0.0150874	 +/-  0.172112	(limited)
gamma_stat_dilep_BDT_SR1_4j_bin_0_tthbbdil	  = 1.00619	 +/-  0.0196421	(limited)
gamma_stat_dilep_BDT_SR1_4j_bin_1_tthbbdil	  = 0.979815	 +/-  0.0181345	(limited)
gamma_stat_dilep_BDT_SR1_4j_bin_2_tthbbdil	  = 0.983495	 +/-  0.0219052	(limited)
gamma_stat_dilep_BDT_SR1_4j_bin_3_tthbbdil	  = 1.03456	 +/-  0.0250967	(limited)
gamma_stat_dilep_BDT_SR2_4j_bin_0_tthbbdil	  = 1.00143	 +/-  0.0140505	(limited)
gamma_stat_dilep_BDT_SR2_4j_bin_1_tthbbdil	  = 1.00326	 +/-  0.0135758	(limited)
gamma_stat_dilep_BDT_SR2_4j_bin_2_tthbbdil	  = 1.00022	 +/-  0.014484	(limited)
gamma_stat_dilep_BDT_SR2_4j_bin_3_tthbbdil	  = 0.995808	 +/-  0.0155834	(limited)
gamma_stat_dilep_BDT_SR2_4j_bin_4_tthbbdil	  = 0.988666	 +/-  0.0149693	(limited)
gamma_stat_dilep_BDT_SR2_4j_bin_5_tthbbdil	  = 0.996287	 +/-  0.0169419	(limited)
gamma_stat_dilep_BDT_SR2_4j_bin_6_tthbbdil	  = 1.0098	 +/-  0.0199355	(limited)
gamma_stat_dilep_BDT_SR2_4j_bin_7_tthbbdil	  = 1.0565	 +/-  0.0228528	(limited)
gamma_stat_dilep_BDT_SR3_4j_bin_0_tthbbdil	  = 1.0014	 +/-  0.0110488	(limited)
gamma_stat_dilep_BDT_SR3_4j_bin_1_tthbbdil	  = 0.999721	 +/-  0.0105219	(limited)
gamma_stat_dilep_BDT_SR3_4j_bin_2_tthbbdil	  = 0.99939	 +/-  0.0107851	(limited)
gamma_stat_dilep_BDT_SR3_4j_bin_3_tthbbdil	  = 0.997794	 +/-  0.0111445	(limited)
gamma_stat_dilep_BDT_SR3_4j_bin_4_tthbbdil	  = 0.997144	 +/-  0.0122948	(limited)
gamma_stat_dilep_BDT_SR3_4j_bin_5_tthbbdil	  = 0.99391	 +/-  0.0128562	(limited)
gamma_stat_dilep_BDT_SR3_4j_bin_6_tthbbdil	  = 0.998023	 +/-  0.0144674	(limited)
gamma_stat_dilep_BDT_SR3_4j_bin_7_tthbbdil	  = 1.01145	 +/-  0.0163206	(limited)
gamma_stat_dilep_HTall_CR2_3j_bin_0_tthbbdil	  = 0.999988	 +/-  0.00945636	(limited)
singletop_Wt_XS	  = -0.000747166	 +/-  0.759781	(limited)
tHjb_XS_PDFunc	  = 6.21503e-05	 +/-  0.98018	(limited)
tHjb_XS_QCDscale	  = 6.30572e-05	 +/-  0.980032	(limited)
tZjb_XS_QCDscale	  = -0.000234251	 +/-  0.980453	(limited)
tt3b_XS	  = -0.22127	 +/-  0.357133	(limited)
ttH_PS	  = 1.34555e-10	 +/-  0.980041	(limited)
ttH_XS_PDFunc	  = 1.34555e-10	 +/-  0.980041	(limited)
ttH_XS_QCDscale	  = 1.34555e-10	 +/-  0.980041	(limited)
ttWW_XS_QCDscale	  = 0.000210955	 +/-  0.980184	(limited)
ttW_Gen	  = 0.00518541	 +/-  0.97616	(limited)
ttW_XS_PDFunc	  = -0.000918915	 +/-  0.979291	(limited)
ttW_XS_QCDscale	  = 0.00227449	 +/-  0.97064	(limited)
ttZ_Gen	  = -0.00204452	 +/-  0.54016	(limited)
ttZ_XS_PDFunc	  = 0.019736	 +/-  0.976715	(limited)
ttZ_XS_QCDscale	  = 0.0518385	 +/-  0.950297	(limited)
tt_XS	  = -0.103194	 +/-  0.030411	(limited)
ttb_4F5Fshape	  = 0.102689	 +/-  0.12675	(limited)
ttb_CSS_KIN	  = 0.0739362	 +/-  0.461855	(limited)
ttb_Gen	  = 0.448471	 +/-  0.121778	(limited)
ttb_MPI	  = -0.0216628	 +/-  0.923111	(limited)
ttb_MPI_factor	  = -0.00239241	 +/-  0.897638	(limited)
ttb_PS	  = -0.057526	 +/-  0.263434	(limited)
ttb_Q_CMMPS	  = -0.0338324	 +/-  0.747814	(limited)
ttb_Rad	  = -0.0436037	 +/-  0.240576	(limited)
ttb_glosoft	  = -0.0419753	 +/-  0.654088	(limited)
ttb_norm	  = 1.094	 +/-  0.0142371	(limited)
ttb_scalechoice	  = 0.03878	 +/-  0.708675	(limited)
ttc_Gen	  = 0.209193	 +/-  0.0565708	(limited)
ttc_MERW	  = 0.0246885	 +/-  0.181228	(limited)
ttc_PS	  = 0.244138	 +/-  0.0635312	(limited)
ttc_Rad	  = 0.283286	 +/-  0.208066	(limited)
ttc_norm	  = 0.854152	 +/-  0.0141034	(limited)
ttlight_Gen	  = 0.262303	 +/-  0.0312854	(limited)
ttlight_PS	  = -0.0160523	 +/-  0.0229683	(limited)
ttlight_Rad	  = -0.129789	 +/-  0.039226	(limited)
tttt_XS	  = 0.0236478	 +/-  0.96132	(limited)
ddsddsdds_test:strategy=1
ddsddsdds_test:printLevel=1
ddsddsdds_test:status=1
DEBUG: Fit is done
DEBUG: minimize with Asimov Dataset
[#1] INFO:Fitting -- RooAddition::defaultErrorLevel(nll_combPdf_asimovData_1_with_constr) Summation contains a RooNLLVar, using its error level
Minuit2Minimizer: Minimize with max-calls 63500 convergence for edm < 1 strategy 1
MnSeedGenerator: for initial parameters FCN = -139.1341426796
MnSeedGenerator: Initial state:   - FCN =  -139.1341426796 Edm =  1.26602e-10 NCalls =    491 Dcovar =      1
VariableMetric: start iterating until Edm is < 0.001
VariableMetric: Initial state   - FCN =  -139.1341426796 Edm =  1.26602e-10 NCalls =    491 Dcovar =      1
VariableMetric: Iteration #   0 - FCN =  -139.1341426796 Edm =  1.26602e-10 NCalls =    491 Dcovar =      1
VariableMetric: Iteration #   1 - FCN =  -139.1341426934 Edm =  3.15797e-10 NCalls =    748 Dcovar = 0.530523
VariableMetric: After Hessian   - FCN =  -139.1341426934 Edm =  2.76508e-07 NCalls =   9496 Dcovar =      1
VariableMetric: Iteration #   2 - FCN =  -139.1341426934 Edm =  2.76508e-07 NCalls =   9496 Dcovar =      1
Minuit2Minimizer : Valid minimum - status = 1
FVAL  = -139.134142693402396
Edm   = 2.76507757903198056e-07
Nfcn  = 9496
ATLAS_BR_Others	  = 2.45576e-09	 +/-  0.977306	(limited)
ATLAS_BR_WW	  = -1.50416e-07	 +/-  0.977332	(limited)
ATLAS_BR_bb	  = -8.62827e-08	 +/-  0.97608	(limited)
ATLAS_EL_SF_ID	  = 1.32596e-10	 +/-  0.149325	(limited)
ATLAS_EM_RES	  = -3.24301e-09	 +/-  0.976573	(limited)
ATLAS_EM_SCALE	  = 3.86487e-08	 +/-  0.975081	(limited)
ATLAS_FTAG_B0	  = 3.92753e-09	 +/-  0.102305	(limited)
ATLAS_FTAG_B1	  = 5.92504e-11	 +/-  0.098501	(limited)
ATLAS_FTAG_B10	  = -2.72234e-09	 +/-  0.977152	(limited)
ATLAS_FTAG_B2	  = 3.60484e-08	 +/-  0.7461	(limited)
ATLAS_FTAG_B22	  = 1.59189e-10	 +/-  0.977606	(limited)
ATLAS_FTAG_B27	  = 1.1312e-08	 +/-  0.818334	(limited)
ATLAS_FTAG_B3	  = -3.17768e-10	 +/-  0.977538	(limited)
ATLAS_FTAG_B4	  = -2.29082e-08	 +/-  0.93619	(limited)
ATLAS_FTAG_B5	  = 2.482e-08	 +/-  0.918758	(limited)
ATLAS_FTAG_B6	  = 3.17887e-10	 +/-  0.977568	(limited)
ATLAS_FTAG_B7	  = -3.17993e-10	 +/-  0.977577	(limited)
ATLAS_FTAG_B8	  = -4.78698e-09	 +/-  0.977003	(limited)
ATLAS_FTAG_C0	  = -6.4941e-09	 +/-  0.481528	(limited)
ATLAS_FTAG_C1	  = -2.65971e-08	 +/-  0.516868	(limited)
ATLAS_FTAG_C2	  = -7.33241e-09	 +/-  0.56498	(limited)
ATLAS_FTAG_C3	  = -1.72871e-08	 +/-  0.831634	(limited)
ATLAS_FTAG_C4	  = 2.54708e-09	 +/-  0.977609	(limited)
ATLAS_FTAG_L0	  = 2.45249e-09	 +/-  0.0698233	(limited)
ATLAS_FTAG_L1	  = 1.87273e-08	 +/-  0.379927	(limited)
ATLAS_FTAG_L10	  = 2.50983e-08	 +/-  0.951084	(limited)
ATLAS_FTAG_L11	  = 2.58252e-08	 +/-  0.956183	(limited)
ATLAS_FTAG_L12	  = 2.76461e-08	 +/-  0.952864	(limited)
ATLAS_FTAG_L13	  = 1.02951e-09	 +/-  0.977413	(limited)
ATLAS_FTAG_L16	  = 2.91469e-08	 +/-  0.954151	(limited)
ATLAS_FTAG_L17	  = 2.73645e-08	 +/-  0.95741	(limited)
ATLAS_FTAG_L2	  = 5.87525e-09	 +/-  0.315287	(limited)
ATLAS_FTAG_L3	  = 3.2352e-09	 +/-  0.424815	(limited)
ATLAS_FTAG_L4	  = 5.60543e-09	 +/-  0.434042	(limited)
ATLAS_FTAG_L5	  = 1.58482e-08	 +/-  0.913247	(limited)
ATLAS_FTAG_L6	  = 2.72e-08	 +/-  0.829357	(limited)
ATLAS_FTAG_L8	  = 3.22456e-08	 +/-  0.930967	(limited)
ATLAS_FTAG_L9	  = 1.32606e-08	 +/-  0.97495	(limited)
ATLAS_JER	  = 1.3766e-08	 +/-  0.370926	(limited)
ATLAS_JER_CRs_bb	  = -6.19096e-09	 +/-  0.409608	(limited)
ATLAS_JES_BJES	  = 6.45894e-09	 +/-  0.794242	(limited)
ATLAS_JES_EffectiveNP_1	  = 1.40682e-10	 +/-  0.0601503	(limited)
ATLAS_JES_EffectiveNP_2	  = -7.30155e-09	 +/-  0.918187	(limited)
ATLAS_JES_EtaInter_Model	  = 2.54579e-09	 +/-  0.183008	(limited)
ATLAS_JES_EtaInter_NonClosure	  = 7.80846e-09	 +/-  0.955762	(limited)
ATLAS_JES_EtaInter_Stat	  = -1.1812e-07	 +/-  0.956433	(limited)
ATLAS_JES_Flavor_Comp	  = -8.34495e-10	 +/-  0.0386128	(limited)
ATLAS_JES_Flavor_Resp	  = -1.44821e-09	 +/-  0.143022	(limited)
ATLAS_JES_PU_OffsetMu	  = 3.14441e-10	 +/-  0.97735	(limited)
ATLAS_JES_PU_OffsetNPV	  = 6.53457e-09	 +/-  0.708938	(limited)
ATLAS_JES_PU_Rho	  = 1.08975e-09	 +/-  0.0414237	(limited)
ATLAS_JVT	  = 2.56317e-09	 +/-  0.977002	(limited)
ATLAS_MET_SoftResPara	  = -7.9595e-11	 +/-  0.977609	(limited)
ATLAS_MET_SoftResPerp	  = -7.9595e-11	 +/-  0.977609	(limited)
ATLAS_MU_ID	  = 3.1653e-09	 +/-  0.977441	(limited)
ATLAS_MU_MS	  = 1.57081e-08	 +/-  0.975698	(limited)
ATLAS_MU_SCALE	  = 0	 +/-  0.977501	(limited)
ATLAS_MU_SF_ID_Syst	  = 3.09614e-09	 +/-  0.976962	(limited)
ATLAS_PRW_DATASF	  = -1.54555e-09	 +/-  0.145839	(limited)
ATLAS_lumi	  = -5.61132e-09	 +/-  0.0727664	(limited)
Diboson_XS	  = 1.48139e-09	 +/-  0.927918	(limited)
Fakes2L_norm_tthbbdil	  = 1.82599e-08	 +/-  0.463441	(limited)
WtH_XS_PDFunc	  = -1.62323e-07	 +/-  0.977287	(limited)
WtH_XS_QCDscale	  = -3.23369e-07	 +/-  0.97717	(limited)
WtZ_XS	  = 8.6419e-10	 +/-  0.976995	(limited)
Wt_DS_tthbb	  = 7.86684e-09	 +/-  0.20453	(limited)
Wt_PS_tthbb	  = -1.95359e-08	 +/-  0.357753	(limited)
Wt_Rad_tthbb	  = 5.07238e-08	 +/-  0.611058	(limited)
Zjets_XS_3j_tthbbdil	  = 8.03464e-11	 +/-  0.127518	(limited)
Zjets_XS_ge4j_tthbbdil	  = 6.88605e-11	 +/-  0.152224	(limited)
gamma_stat_dilep_BDT_SR1_4j_bin_0_tthbbdil	  = 1	 +/-  0.019266	(limited)
gamma_stat_dilep_BDT_SR1_4j_bin_1_tthbbdil	  = 1	 +/-  0.0183658	(limited)
gamma_stat_dilep_BDT_SR1_4j_bin_2_tthbbdil	  = 1	 +/-  0.0229116	(limited)
gamma_stat_dilep_BDT_SR1_4j_bin_3_tthbbdil	  = 1	 +/-  0.0268671	(limited)
gamma_stat_dilep_BDT_SR2_4j_bin_0_tthbbdil	  = 1	 +/-  0.0134793	(limited)
gamma_stat_dilep_BDT_SR2_4j_bin_1_tthbbdil	  = 1	 +/-  0.0131493	(limited)
gamma_stat_dilep_BDT_SR2_4j_bin_2_tthbbdil	  = 1	 +/-  0.014097	(limited)
gamma_stat_dilep_BDT_SR2_4j_bin_3_tthbbdil	  = 1	 +/-  0.0153125	(limited)
gamma_stat_dilep_BDT_SR2_4j_bin_4_tthbbdil	  = 1	 +/-  0.0150491	(limited)
gamma_stat_dilep_BDT_SR2_4j_bin_5_tthbbdil	  = 1	 +/-  0.0169624	(limited)
gamma_stat_dilep_BDT_SR2_4j_bin_6_tthbbdil	  = 1	 +/-  0.0201593	(limited)
gamma_stat_dilep_BDT_SR2_4j_bin_7_tthbbdil	  = 1	 +/-  0.0237308	(limited)
gamma_stat_dilep_BDT_SR3_4j_bin_0_tthbbdil	  = 1	 +/-  0.0107879	(limited)
gamma_stat_dilep_BDT_SR3_4j_bin_1_tthbbdil	  = 1	 +/-  0.0104535	(limited)
gamma_stat_dilep_BDT_SR3_4j_bin_2_tthbbdil	  = 1	 +/-  0.0107935	(limited)
gamma_stat_dilep_BDT_SR3_4j_bin_3_tthbbdil	  = 1	 +/-  0.0111703	(limited)
gamma_stat_dilep_BDT_SR3_4j_bin_4_tthbbdil	  = 1	 +/-  0.012339	(limited)
gamma_stat_dilep_BDT_SR3_4j_bin_5_tthbbdil	  = 1	 +/-  0.0129541	(limited)
gamma_stat_dilep_BDT_SR3_4j_bin_6_tthbbdil	  = 1	 +/-  0.014645	(limited)
gamma_stat_dilep_BDT_SR3_4j_bin_7_tthbbdil	  = 1	 +/-  0.0172916	(limited)
gamma_stat_dilep_HTall_CR2_3j_bin_0_tthbbdil	  = 1	 +/-  0.00914116	(limited)
singletop_Wt_XS	  = 4.13576e-08	 +/-  0.732251	(limited)
tHjb_XS_PDFunc	  = 3.41683e-07	 +/-  0.977282	(limited)
tHjb_XS_QCDscale	  = -3.9798e-10	 +/-  0.977393	(limited)
tZjb_XS_QCDscale	  = -2.86323e-09	 +/-  0.977221	(limited)
tt3b_XS	  = 1.10172e-08	 +/-  0.360434	(limited)
ttH_PS	  = -1.65728e-07	 +/-  0.893476	(limited)
ttH_XS_PDFunc	  = -1.30711e-07	 +/-  0.96452	(limited)
ttH_XS_QCDscale	  = 1.41148e-06	 +/-  0.920666	(limited)
ttWW_XS_QCDscale	  = 0	 +/-  0.977323	(limited)
ttW_Gen	  = 1.77118e-07	 +/-  0.9737	(limited)
ttW_XS_PDFunc	  = 1.33642e-08	 +/-  0.976348	(limited)
ttW_XS_QCDscale	  = -4.09674e-08	 +/-  0.966342	(limited)
ttZ_Gen	  = 9.04454e-08	 +/-  0.51272	(limited)
ttZ_XS_PDFunc	  = 1.40312e-08	 +/-  0.973554	(limited)
ttZ_XS_QCDscale	  = 6.38095e-07	 +/-  0.950498	(limited)
tt_XS	  = 4.94865e-10	 +/-  0.0280157	(limited)
ttb_4F5Fshape	  = 8.65908e-10	 +/-  0.124051	(limited)
ttb_CSS_KIN	  = 8.34684e-09	 +/-  0.456972	(limited)
ttb_Gen	  = -6.22729e-09	 +/-  0.134754	(limited)
ttb_MPI	  = -2.61251e-08	 +/-  0.920899	(limited)
ttb_MPI_factor	  = -7.84465e-08	 +/-  0.893032	(limited)
ttb_PS	  = -1.59993e-08	 +/-  0.26164	(limited)
ttb_Q_CMMPS	  = -1.18136e-08	 +/-  0.744487	(limited)
ttb_Rad	  = -6.44771e-09	 +/-  0.237819	(limited)
ttb_glosoft	  = -9.2578e-09	 +/-  0.650574	(limited)
ttb_norm	  = 1	 +/-  0.0129159	(limited)
ttb_scalechoice	  = 1.08955e-08	 +/-  0.70522	(limited)
ttc_Gen	  = 1.3276e-09	 +/-  0.0433491	(limited)
ttc_MERW	  = 2.18938e-09	 +/-  0.156423	(limited)
ttc_PS	  = 1.43006e-10	 +/-  0.0488043	(limited)
ttc_Rad	  = 4.96221e-09	 +/-  0.175787	(limited)
ttc_norm	  = 1	 +/-  0.0142156	(limited)
ttlight_Gen	  = 4.1969e-10	 +/-  0.0266894	(limited)
ttlight_PS	  = 2.62878e-10	 +/-  0.0210236	(limited)
ttlight_Rad	  = -8.57137e-10	 +/-  0.0363776	(limited)
tttt_XS	  = 8.51567e-07	 +/-  0.959186	(limited)
ddsddsdds_test:strategy=1
ddsddsdds_test:printLevel=1
ddsddsdds_test:status=1
DEBUG: Fit is done
DEBUG: minimize with Asimov Dataset
[#0] ERROR:ObjectHandling -- RooWorkspace::loadSnapshot(combined) no snapshot with name nominalGlobs is available
obs: 0
Observed significance: 0
Median test stat val: 2.77643
Median significance:   1.66626
Real time 0:00:22, CP time 14.710
