<Syst OldName = "ATLAS_BR_Others" 
<Syst OldName = "ATLAS_BR_WW" 
<Syst OldName = "ATLAS_BR_ZZ" 
<Syst OldName = "ATLAS_BR_tautau" 
<Syst OldName = "ATLAS_EL_SF_ID" 
<Syst OldName = "ATLAS_EL_SF_ISO" 
<Syst OldName = "ATLAS_EL_SF_RECO" 
<Syst OldName = "ATLAS_EM_RES" 
<Syst OldName = "ATLAS_EM_SCALE" 
<Syst OldName = "ATLAS_FTAG_B0" 
<Syst OldName = "ATLAS_FTAG_B1" 
<Syst OldName = "ATLAS_FTAG_B10" 
<Syst OldName = "ATLAS_FTAG_B11" 
<Syst OldName = "ATLAS_FTAG_B12" 
<Syst OldName = "ATLAS_FTAG_B13" 
<Syst OldName = "ATLAS_FTAG_B14" 
<Syst OldName = "ATLAS_FTAG_B15" 
<Syst OldName = "ATLAS_FTAG_B16" 
<Syst OldName = "ATLAS_FTAG_B17" 
<Syst OldName = "ATLAS_FTAG_B18" 
<Syst OldName = "ATLAS_FTAG_B19" 
<Syst OldName = "ATLAS_FTAG_B2" 
<Syst OldName = "ATLAS_FTAG_B20" 
<Syst OldName = "ATLAS_FTAG_B21" 
<Syst OldName = "ATLAS_FTAG_B22" 
<Syst OldName = "ATLAS_FTAG_B24" 
<Syst OldName = "ATLAS_FTAG_B26" 
<Syst OldName = "ATLAS_FTAG_B27" 
<Syst OldName = "ATLAS_FTAG_B29" 
<Syst OldName = "ATLAS_FTAG_B3" 
<Syst OldName = "ATLAS_FTAG_B4" 
<Syst OldName = "ATLAS_FTAG_B5" 
<Syst OldName = "ATLAS_FTAG_B6" 
<Syst OldName = "ATLAS_FTAG_B7" 
<Syst OldName = "ATLAS_FTAG_B8" 
<Syst OldName = "ATLAS_FTAG_B9" 
<Syst OldName = "ATLAS_FTAG_C0" 
<Syst OldName = "ATLAS_FTAG_C1" 
<Syst OldName = "ATLAS_FTAG_C10" 
<Syst OldName = "ATLAS_FTAG_C11" 
<Syst OldName = "ATLAS_FTAG_C12" 
<Syst OldName = "ATLAS_FTAG_C13" 
<Syst OldName = "ATLAS_FTAG_C14" 
<Syst OldName = "ATLAS_FTAG_C2" 
<Syst OldName = "ATLAS_FTAG_C3" 
<Syst OldName = "ATLAS_FTAG_C4" 
<Syst OldName = "ATLAS_FTAG_C5" 
<Syst OldName = "ATLAS_FTAG_C6" 
<Syst OldName = "ATLAS_FTAG_C7" 
<Syst OldName = "ATLAS_FTAG_C8" 
<Syst OldName = "ATLAS_FTAG_C9" 
<Syst OldName = "ATLAS_FTAG_L0" 
<Syst OldName = "ATLAS_FTAG_L1" 
<Syst OldName = "ATLAS_FTAG_L10" 
<Syst OldName = "ATLAS_FTAG_L11" 
<Syst OldName = "ATLAS_FTAG_L12" 
<Syst OldName = "ATLAS_FTAG_L13" 
<Syst OldName = "ATLAS_FTAG_L14" 
<Syst OldName = "ATLAS_FTAG_L15" 
<Syst OldName = "ATLAS_FTAG_L16" 
<Syst OldName = "ATLAS_FTAG_L17" 
<Syst OldName = "ATLAS_FTAG_L18" 
<Syst OldName = "ATLAS_FTAG_L19" 
<Syst OldName = "ATLAS_FTAG_L2" 
<Syst OldName = "ATLAS_FTAG_L20" 
<Syst OldName = "ATLAS_FTAG_L21" 
<Syst OldName = "ATLAS_FTAG_L22" 
<Syst OldName = "ATLAS_FTAG_L23" 
<Syst OldName = "ATLAS_FTAG_L24" 
<Syst OldName = "ATLAS_FTAG_L25" 
<Syst OldName = "ATLAS_FTAG_L26" 
<Syst OldName = "ATLAS_FTAG_L27" 
<Syst OldName = "ATLAS_FTAG_L28" 
<Syst OldName = "ATLAS_FTAG_L3" 
<Syst OldName = "ATLAS_FTAG_L31" 
<Syst OldName = "ATLAS_FTAG_L32" 
<Syst OldName = "ATLAS_FTAG_L35" 
<Syst OldName = "ATLAS_FTAG_L36" 
<Syst OldName = "ATLAS_FTAG_L37" 
<Syst OldName = "ATLAS_FTAG_L38" 
<Syst OldName = "ATLAS_FTAG_L4" 
<Syst OldName = "ATLAS_FTAG_L42" 
<Syst OldName = "ATLAS_FTAG_L44" 
<Syst OldName = "ATLAS_FTAG_L5" 
<Syst OldName = "ATLAS_FTAG_L50" 
<Syst OldName = "ATLAS_FTAG_L6" 
<Syst OldName = "ATLAS_FTAG_L7" 
<Syst OldName = "ATLAS_FTAG_L8" 
<Syst OldName = "ATLAS_FTAG_L9" 
<Syst OldName = "ATLAS_JER" 
<Syst OldName = "ATLAS_JES_BJES" 
<Syst OldName = "ATLAS_JES_EffectiveNP_1" 
<Syst OldName = "ATLAS_JES_EffectiveNP_2" 
<Syst OldName = "ATLAS_JES_EffectiveNP_3" 
<Syst OldName = "ATLAS_JES_EffectiveNP_4" 
<Syst OldName = "ATLAS_JES_EffectiveNP_5" 
<Syst OldName = "ATLAS_JES_EffectiveNP_6" 
<Syst OldName = "ATLAS_JES_EffectiveNP_7" 
<Syst OldName = "ATLAS_JES_EffectiveNP_8" 
<Syst OldName = "ATLAS_JES_EtaInter_Model" 
<Syst OldName = "ATLAS_JES_EtaInter_NonClosure" 
<Syst OldName = "ATLAS_JES_EtaInter_Stat" 
<Syst OldName = "ATLAS_JES_Flavor_Comp_l20tau_Other_tthlepNoT" 
<Syst OldName = "ATLAS_JES_Flavor_Comp_l20tau_VV_tthlepNoT" 
<Syst OldName = "ATLAS_JES_Flavor_Comp_l20tau_ttZ_tthlepNoT" 
<Syst OldName = "ATLAS_JES_Flavor_Comp_l30tau_Other_tthlepNoT" 
<Syst OldName = "ATLAS_JES_Flavor_Comp_l30tau_ttW_tthlepNoT" 
<Syst OldName = "ATLAS_JES_Flavor_Comp_l4_tthlepNoT" 
<Syst OldName = "ATLAS_JES_Flavor_Resp" 
<Syst OldName = "ATLAS_JES_PU_OffsetMu" 
<Syst OldName = "ATLAS_JES_PU_OffsetNPV" 
<Syst OldName = "ATLAS_JES_PU_PtTerm" 
<Syst OldName = "ATLAS_JES_PU_Rho" 
<Syst OldName = "ATLAS_JES_PunchThrough" 
<Syst OldName = "ATLAS_JVT" 
<Syst OldName = "ATLAS_MET_SoftResPara" 
<Syst OldName = "ATLAS_MET_SoftResPerp" 
<Syst OldName = "ATLAS_MET_SoftScale" 
<Syst OldName = "ATLAS_MU_ID" 
<Syst OldName = "ATLAS_MU_MS" 
<Syst OldName = "ATLAS_MU_SCALE" 
<Syst OldName = "ATLAS_MU_SF_ID_LowPt_Syst" 
<Syst OldName = "ATLAS_MU_SF_ID_Stat_tthlep" 
<Syst OldName = "ATLAS_MU_SF_ID_Syst" 
<Syst OldName = "ATLAS_MU_SF_ISO_Syst" 
<Syst OldName = "ATLAS_MU_SF_TTVA_Stat_tthlep" 
<Syst OldName = "ATLAS_MU_SF_TTVA_Syst" 
<Syst OldName = "ATLAS_PRW_DATASF" 
<Syst OldName = "ATLAS_TAU_TES_DET" 
<Syst OldName = "ATLAS_TAU_TES_INSITU" 
<Syst OldName = "ATLAS_TAU_TES_MODEL" 
<Syst OldName = "ATLAS_lumi" 
<Syst OldName = "Diboson_XS" 
<Syst OldName = "Diboson_varSherpa_tthlep" 
<Syst OldName = "Fakes_CR_Stat_l20tau_bin0_tthlep" 
<Syst OldName = "Fakes_CR_Stat_l20tau_bin1_tthlep" 
<Syst OldName = "Fakes_CR_Stat_l20tau_bin2_tthlep" 
<Syst OldName = "Fakes_CR_Stat_l20tau_bin3_tthlep" 
<Syst OldName = "Fakes_CR_Stat_l20tau_bin4_tthlep" 
<Syst OldName = "Fakes_CR_Stat_l20tau_bin5_tthlep" 
<Syst OldName = "Fakes_CR_Stat_l30tau_VV_bin0_tthlep" 
<Syst OldName = "Fakes_CR_Stat_l30tau_ttH_bin0_tthlep" 
<Syst OldName = "Fakes_CR_Stat_l30tau_ttH_bin1_tthlep" 
<Syst OldName = "Fakes_CR_Stat_l30tau_ttH_bin2_tthlep" 
<Syst OldName = "Fakes_CR_Stat_l30tau_ttH_bin3_tthlep" 
<Syst OldName = "Fakes_CR_Stat_l30tau_ttH_bin4_tthlep" 
<Syst OldName = "Fakes_CR_Stat_l30tau_ttW_bin0_tthlep" 
<Syst OldName = "Fakes_CR_Stat_l30tau_ttZ_bin0_tthlep" 
<Syst OldName = "Fakes_CR_Stat_l30tau_ttbar_Rest_bin0_tthlep" 
<Syst OldName = "Fakes_El_Stat_10_tthlep" 
<Syst OldName = "Fakes_El_Stat_9_tthlep" 
<Syst OldName = "Fakes_MM_SubtrOther_tthlep" 
<Syst OldName = "Fakes_Mu_Stat_10_tthlep" 
<Syst OldName = "Fakes_Mu_Stat_13_tthlep" 
<Syst OldName = "Fakes_Mu_Stat_14_tthlep" 
<Syst OldName = "Fakes_Mu_Stat_17_tthlep" 
<Syst OldName = "Fakes_Mu_Stat_18_tthlep" 
<Syst OldName = "Fakes_Mu_Stat_9_tthlep" 
<Syst OldName = "Fakes_Real_tthlep" 
<Syst OldName = "Fakes_l20tau_MM_Closure_ee_tthlep" 
<Syst OldName = "Fakes_l20tau_MM_Closure_em_tthlep" 
<Syst OldName = "Fakes_l20tau_MM_Closure_mm_tthlep" 
<Syst OldName = "Fakes_l20tau_MM_FracConv_ee_tthlep" 
<Syst OldName = "Fakes_l30tau_MM_Closure_tthlep" 
<Syst OldName = "Fakes_l30tau_MM_FracConv_ee_tthlep" 
<Syst OldName = "Fakes_l30tau_MM_FracConv_em_tthlep" 
<Syst OldName = "Fakes_l4_FSF_tthlep" 
<Syst OldName = "QMisId_CR_Stat_l20tau_bin1_tthlep" 
<Syst OldName = "QMisId_CR_Stat_l20tau_bin2_tthlep" 
<Syst OldName = "QMisId_CR_Stat_l20tau_bin3_tthlep" 
<Syst OldName = "QMisId_CR_Stat_l20tau_bin4_tthlep" 
<Syst OldName = "QMisId_CR_Stat_l20tau_bin5_tthlep" 
<Syst OldName = "QMisId_l20tau_tthlep" 
<Syst OldName = "VVV_XS_tthlep" 
<Syst OldName = "WtH_XS_PDFunc" 
<Syst OldName = "WtH_XS_QCDscale" 
<Syst OldName = "WtZ_XS" 
<Syst OldName = "gamma_stat_l20tau_bin_0_tthlepNoT" 
<Syst OldName = "gamma_stat_l20tau_bin_1_tthlepNoT" 
<Syst OldName = "gamma_stat_l20tau_bin_2_tthlepNoT" 
<Syst OldName = "gamma_stat_l20tau_bin_3_tthlepNoT" 
<Syst OldName = "gamma_stat_l20tau_bin_4_tthlepNoT" 
<Syst OldName = "gamma_stat_l20tau_bin_5_tthlepNoT" 
<Syst OldName = "gamma_stat_l30tau_VV_bin_0_tthlepNoT" 
<Syst OldName = "gamma_stat_l30tau_ttH_bin_0_tthlepNoT" 
<Syst OldName = "gamma_stat_l30tau_ttH_bin_1_tthlepNoT" 
<Syst OldName = "gamma_stat_l30tau_ttH_bin_2_tthlepNoT" 
<Syst OldName = "gamma_stat_l30tau_ttH_bin_3_tthlepNoT" 
<Syst OldName = "gamma_stat_l30tau_ttH_bin_4_tthlepNoT" 
<Syst OldName = "gamma_stat_l30tau_ttW_bin_0_tthlepNoT" 
<Syst OldName = "gamma_stat_l30tau_ttZ_bin_0_tthlepNoT" 
<Syst OldName = "gamma_stat_l30tau_ttbar_Rest_bin_0_tthlepNoT" 
<Syst OldName = "gamma_stat_l4_depZ_bin_0_tthlepNoT" 
<Syst OldName = "gamma_stat_l4_enrZ_bin_0_tthlepNoT" 
<Syst OldName = "rareTop_XS_tthlep" 
<Syst OldName = "tHjb_XS_PDFunc" 
<Syst OldName = "tHjb_XS_QCDscale" 
<Syst OldName = "tZ_XS_tthlep" 
<Syst OldName = "threeTop_XS_tthlep" 
<Syst OldName = "ttH_PS" 
<Syst OldName = "ttH_XS_PDFunc" 
<Syst OldName = "ttH_XS_QCDscale" 
<Syst OldName = "ttH_varA14" 
<Syst OldName = "ttH_varRF_tthlep" 
<Syst OldName = "ttH_varR_tthlep" 
<Syst OldName = "ttWW_XS_PDFunc" 
<Syst OldName = "ttWW_XS_QCDscale" 
<Syst OldName = "ttW_Gen" 
<Syst OldName = "ttW_XS_PDFunc" 
<Syst OldName = "ttW_XS_QCDscale" 
<Syst OldName = "ttW_varA14_tthlep" 
<Syst OldName = "ttW_varF_tthlep" 
<Syst OldName = "ttW_varRF_tthlep" 
<Syst OldName = "ttZ_Gen" 
<Syst OldName = "ttZ_XS_PDFunc" 
<Syst OldName = "ttZ_XS_QCDscale" 
<Syst OldName = "ttZ_varA14_tthlep" 
<Syst OldName = "ttZ_varF_tthlep" 
<Syst OldName = "ttZ_varRF_tthlep" 
<Syst OldName = "ttZ_varR_tthlep" 
<Syst OldName = "tttt_XS" 
