<Syst OldName = "ATLAS_BR_Others" 
<Syst OldName = "ATLAS_BR_WW" 
<Syst OldName = "ATLAS_BR_bb" 
<Syst OldName = "ATLAS_EL_SF_ID" 
<Syst OldName = "ATLAS_EM_RES" 
<Syst OldName = "ATLAS_EM_SCALE" 
<Syst OldName = "ATLAS_FTAG_B0" 
<Syst OldName = "ATLAS_FTAG_B1" 
<Syst OldName = "ATLAS_FTAG_B10" 
<Syst OldName = "ATLAS_FTAG_B2" 
<Syst OldName = "ATLAS_FTAG_B22" 
<Syst OldName = "ATLAS_FTAG_B27" 
<Syst OldName = "ATLAS_FTAG_B3" 
<Syst OldName = "ATLAS_FTAG_B4" 
<Syst OldName = "ATLAS_FTAG_B5" 
<Syst OldName = "ATLAS_FTAG_B6" 
<Syst OldName = "ATLAS_FTAG_B7" 
<Syst OldName = "ATLAS_FTAG_B8" 
<Syst OldName = "ATLAS_FTAG_C0" 
<Syst OldName = "ATLAS_FTAG_C1" 
<Syst OldName = "ATLAS_FTAG_C2" 
<Syst OldName = "ATLAS_FTAG_C3" 
<Syst OldName = "ATLAS_FTAG_C4" 
<Syst OldName = "ATLAS_FTAG_L0" 
<Syst OldName = "ATLAS_FTAG_L1" 
<Syst OldName = "ATLAS_FTAG_L10" 
<Syst OldName = "ATLAS_FTAG_L11" 
<Syst OldName = "ATLAS_FTAG_L12" 
<Syst OldName = "ATLAS_FTAG_L13" 
<Syst OldName = "ATLAS_FTAG_L16" 
<Syst OldName = "ATLAS_FTAG_L17" 
<Syst OldName = "ATLAS_FTAG_L2" 
<Syst OldName = "ATLAS_FTAG_L3" 
<Syst OldName = "ATLAS_FTAG_L4" 
<Syst OldName = "ATLAS_FTAG_L5" 
<Syst OldName = "ATLAS_FTAG_L6" 
<Syst OldName = "ATLAS_FTAG_L8" 
<Syst OldName = "ATLAS_FTAG_L9" 
<Syst OldName = "ATLAS_JER" 
<Syst OldName = "ATLAS_JER_CRs_bb" 
<Syst OldName = "ATLAS_JES_BJES" 
<Syst OldName = "ATLAS_JES_EffectiveNP_1" 
<Syst OldName = "ATLAS_JES_EffectiveNP_2" 
<Syst OldName = "ATLAS_JES_EtaInter_Model" 
<Syst OldName = "ATLAS_JES_EtaInter_NonClosure" 
<Syst OldName = "ATLAS_JES_EtaInter_Stat" 
<Syst OldName = "ATLAS_JES_Flavor_Comp" 
<Syst OldName = "ATLAS_JES_Flavor_Resp" 
<Syst OldName = "ATLAS_JES_PU_OffsetMu" 
<Syst OldName = "ATLAS_JES_PU_OffsetNPV" 
<Syst OldName = "ATLAS_JES_PU_Rho" 
<Syst OldName = "ATLAS_JVT" 
<Syst OldName = "ATLAS_MET_SoftResPara" 
<Syst OldName = "ATLAS_MET_SoftResPerp" 
<Syst OldName = "ATLAS_MU_ID" 
<Syst OldName = "ATLAS_MU_MS" 
<Syst OldName = "ATLAS_MU_SCALE" 
<Syst OldName = "ATLAS_MU_SF_ID_Syst" 
<Syst OldName = "ATLAS_PRW_DATASF" 
<Syst OldName = "ATLAS_lumi" 
<Syst OldName = "Diboson_XS" 
<Syst OldName = "Fakes2L_norm_tthbbdil" 
<Syst OldName = "WtH_XS_PDFunc" 
<Syst OldName = "WtH_XS_QCDscale" 
<Syst OldName = "WtZ_XS" 
<Syst OldName = "Wt_DS_tthbb" 
<Syst OldName = "Wt_PS_tthbb" 
<Syst OldName = "Wt_Rad_tthbb" 
<Syst OldName = "Zjets_XS_3j_tthbbdil" 
<Syst OldName = "Zjets_XS_ge4j_tthbbdil" 
<Syst OldName = "gamma_stat_dilep_BDT_SR1_4j_bin_0_tthbbdil" 
<Syst OldName = "gamma_stat_dilep_BDT_SR1_4j_bin_1_tthbbdil" 
<Syst OldName = "gamma_stat_dilep_BDT_SR1_4j_bin_2_tthbbdil" 
<Syst OldName = "gamma_stat_dilep_BDT_SR1_4j_bin_3_tthbbdil" 
<Syst OldName = "gamma_stat_dilep_BDT_SR2_4j_bin_0_tthbbdil" 
<Syst OldName = "gamma_stat_dilep_BDT_SR2_4j_bin_1_tthbbdil" 
<Syst OldName = "gamma_stat_dilep_BDT_SR2_4j_bin_2_tthbbdil" 
<Syst OldName = "gamma_stat_dilep_BDT_SR2_4j_bin_3_tthbbdil" 
<Syst OldName = "gamma_stat_dilep_BDT_SR2_4j_bin_4_tthbbdil" 
<Syst OldName = "gamma_stat_dilep_BDT_SR2_4j_bin_5_tthbbdil" 
<Syst OldName = "gamma_stat_dilep_BDT_SR2_4j_bin_6_tthbbdil" 
<Syst OldName = "gamma_stat_dilep_BDT_SR2_4j_bin_7_tthbbdil" 
<Syst OldName = "gamma_stat_dilep_BDT_SR3_4j_bin_0_tthbbdil" 
<Syst OldName = "gamma_stat_dilep_BDT_SR3_4j_bin_1_tthbbdil" 
<Syst OldName = "gamma_stat_dilep_BDT_SR3_4j_bin_2_tthbbdil" 
<Syst OldName = "gamma_stat_dilep_BDT_SR3_4j_bin_3_tthbbdil" 
<Syst OldName = "gamma_stat_dilep_BDT_SR3_4j_bin_4_tthbbdil" 
<Syst OldName = "gamma_stat_dilep_BDT_SR3_4j_bin_5_tthbbdil" 
<Syst OldName = "gamma_stat_dilep_BDT_SR3_4j_bin_6_tthbbdil" 
<Syst OldName = "gamma_stat_dilep_BDT_SR3_4j_bin_7_tthbbdil" 
<Syst OldName = "gamma_stat_dilep_HTall_CR2_3j_bin_0_tthbbdil" 
<Syst OldName = "singletop_Wt_XS" 
<Syst OldName = "tHjb_XS_PDFunc" 
<Syst OldName = "tHjb_XS_QCDscale" 
<Syst OldName = "tZjb_XS_QCDscale" 
<Syst OldName = "tt3b_XS" 
<Syst OldName = "ttH_PS" 
<Syst OldName = "ttH_XS_PDFunc" 
<Syst OldName = "ttH_XS_QCDscale" 
<Syst OldName = "ttWW_XS_QCDscale" 
<Syst OldName = "ttW_Gen" 
<Syst OldName = "ttW_XS_PDFunc" 
<Syst OldName = "ttW_XS_QCDscale" 
<Syst OldName = "ttZ_Gen" 
<Syst OldName = "ttZ_XS_PDFunc" 
<Syst OldName = "ttZ_XS_QCDscale" 
<Syst OldName = "tt_XS" 
<Syst OldName = "ttb_4F5Fshape" 
<Syst OldName = "ttb_CSS_KIN" 
<Syst OldName = "ttb_Gen" 
<Syst OldName = "ttb_MPI" 
<Syst OldName = "ttb_MPI_factor" 
<Syst OldName = "ttb_PS" 
<Syst OldName = "ttb_Q_CMMPS" 
<Syst OldName = "ttb_Rad" 
<Syst OldName = "ttb_glosoft" 
<Syst OldName = "ttb_norm" 
<Syst OldName = "ttb_scalechoice" 
<Syst OldName = "ttc_Gen" 
<Syst OldName = "ttc_MERW" 
<Syst OldName = "ttc_PS" 
<Syst OldName = "ttc_Rad" 
<Syst OldName = "ttc_norm" 
<Syst OldName = "ttlight_Gen" 
<Syst OldName = "ttlight_PS" 
<Syst OldName = "ttlight_Rad" 
<Syst OldName = "tttt_XS" 
