<Syst OldName = "ATLAS_BR_Others" 
<Syst OldName = "ATLAS_BR_WW" 
<Syst OldName = "ATLAS_BR_bb" 
<Syst OldName = "ATLAS_EL_SF_ID" 
<Syst OldName = "ATLAS_EL_SF_ISO" 
<Syst OldName = "ATLAS_EM_RES" 
<Syst OldName = "ATLAS_EM_SCALE" 
<Syst OldName = "ATLAS_FTAG_B0" 
<Syst OldName = "ATLAS_FTAG_B1" 
<Syst OldName = "ATLAS_FTAG_B10" 
<Syst OldName = "ATLAS_FTAG_B11" 
<Syst OldName = "ATLAS_FTAG_B12" 
<Syst OldName = "ATLAS_FTAG_B13" 
<Syst OldName = "ATLAS_FTAG_B14" 
<Syst OldName = "ATLAS_FTAG_B15" 
<Syst OldName = "ATLAS_FTAG_B17" 
<Syst OldName = "ATLAS_FTAG_B18" 
<Syst OldName = "ATLAS_FTAG_B2" 
<Syst OldName = "ATLAS_FTAG_B20" 
<Syst OldName = "ATLAS_FTAG_B21" 
<Syst OldName = "ATLAS_FTAG_B22" 
<Syst OldName = "ATLAS_FTAG_B23" 
<Syst OldName = "ATLAS_FTAG_B26" 
<Syst OldName = "ATLAS_FTAG_B27" 
<Syst OldName = "ATLAS_FTAG_B28" 
<Syst OldName = "ATLAS_FTAG_B29" 
<Syst OldName = "ATLAS_FTAG_B3" 
<Syst OldName = "ATLAS_FTAG_B4" 
<Syst OldName = "ATLAS_FTAG_B5" 
<Syst OldName = "ATLAS_FTAG_B6" 
<Syst OldName = "ATLAS_FTAG_B7" 
<Syst OldName = "ATLAS_FTAG_B8" 
<Syst OldName = "ATLAS_FTAG_B9" 
<Syst OldName = "ATLAS_FTAG_C0" 
<Syst OldName = "ATLAS_FTAG_C1" 
<Syst OldName = "ATLAS_FTAG_C10" 
<Syst OldName = "ATLAS_FTAG_C11" 
<Syst OldName = "ATLAS_FTAG_C14" 
<Syst OldName = "ATLAS_FTAG_C2" 
<Syst OldName = "ATLAS_FTAG_C3" 
<Syst OldName = "ATLAS_FTAG_C4" 
<Syst OldName = "ATLAS_FTAG_C5" 
<Syst OldName = "ATLAS_FTAG_C6" 
<Syst OldName = "ATLAS_FTAG_C7" 
<Syst OldName = "ATLAS_FTAG_C8" 
<Syst OldName = "ATLAS_FTAG_C9" 
<Syst OldName = "ATLAS_FTAG_L0" 
<Syst OldName = "ATLAS_FTAG_L1" 
<Syst OldName = "ATLAS_FTAG_L10" 
<Syst OldName = "ATLAS_FTAG_L11" 
<Syst OldName = "ATLAS_FTAG_L12" 
<Syst OldName = "ATLAS_FTAG_L13" 
<Syst OldName = "ATLAS_FTAG_L14" 
<Syst OldName = "ATLAS_FTAG_L15" 
<Syst OldName = "ATLAS_FTAG_L16" 
<Syst OldName = "ATLAS_FTAG_L17" 
<Syst OldName = "ATLAS_FTAG_L18" 
<Syst OldName = "ATLAS_FTAG_L19" 
<Syst OldName = "ATLAS_FTAG_L2" 
<Syst OldName = "ATLAS_FTAG_L20" 
<Syst OldName = "ATLAS_FTAG_L21" 
<Syst OldName = "ATLAS_FTAG_L24" 
<Syst OldName = "ATLAS_FTAG_L25" 
<Syst OldName = "ATLAS_FTAG_L26" 
<Syst OldName = "ATLAS_FTAG_L27" 
<Syst OldName = "ATLAS_FTAG_L28" 
<Syst OldName = "ATLAS_FTAG_L3" 
<Syst OldName = "ATLAS_FTAG_L31" 
<Syst OldName = "ATLAS_FTAG_L33" 
<Syst OldName = "ATLAS_FTAG_L35" 
<Syst OldName = "ATLAS_FTAG_L4" 
<Syst OldName = "ATLAS_FTAG_L5" 
<Syst OldName = "ATLAS_FTAG_L6" 
<Syst OldName = "ATLAS_FTAG_L7" 
<Syst OldName = "ATLAS_FTAG_L8" 
<Syst OldName = "ATLAS_FTAG_L9" 
<Syst OldName = "ATLAS_JER" 
<Syst OldName = "ATLAS_JER_CRs_bb" 
<Syst OldName = "ATLAS_JES_BJES" 
<Syst OldName = "ATLAS_JES_EffectiveNP_1" 
<Syst OldName = "ATLAS_JES_EffectiveNP_2" 
<Syst OldName = "ATLAS_JES_EffectiveNP_3" 
<Syst OldName = "ATLAS_JES_EffectiveNP_4" 
<Syst OldName = "ATLAS_JES_EffectiveNP_5" 
<Syst OldName = "ATLAS_JES_EffectiveNP_6" 
<Syst OldName = "ATLAS_JES_EffectiveNP_7" 
<Syst OldName = "ATLAS_JES_EffectiveNP_8" 
<Syst OldName = "ATLAS_JES_EtaInter_Model" 
<Syst OldName = "ATLAS_JES_EtaInter_NonClosure" 
<Syst OldName = "ATLAS_JES_EtaInter_Stat" 
<Syst OldName = "ATLAS_JES_Flavor_Comp" 
<Syst OldName = "ATLAS_JES_Flavor_Resp" 
<Syst OldName = "ATLAS_JES_PU_OffsetMu" 
<Syst OldName = "ATLAS_JES_PU_OffsetNPV" 
<Syst OldName = "ATLAS_JES_PU_PtTerm" 
<Syst OldName = "ATLAS_JES_PU_Rho" 
<Syst OldName = "ATLAS_JVT" 
<Syst OldName = "ATLAS_MET_SoftResPara" 
<Syst OldName = "ATLAS_MET_SoftResPerp" 
<Syst OldName = "ATLAS_MET_SoftScale" 
<Syst OldName = "ATLAS_MU_ID" 
<Syst OldName = "ATLAS_MU_MS" 
<Syst OldName = "ATLAS_MU_SCALE" 
<Syst OldName = "ATLAS_MU_SF_ID_Stat" 
<Syst OldName = "ATLAS_MU_SF_ID_Syst" 
<Syst OldName = "ATLAS_MU_SF_TRIG_Stat" 
<Syst OldName = "ATLAS_MU_SF_TRIG_Syst" 
<Syst OldName = "ATLAS_PRW_DATASF" 
<Syst OldName = "ATLAS_lumi" 
<Syst OldName = "Diboson_XS" 
<Syst OldName = "Wjets_XS_2hf_tthbblj" 
<Syst OldName = "Wjets_XS_ge3hf_tthbblj" 
<Syst OldName = "Wjets_XS_tthbblj" 
<Syst OldName = "WtH_XS_PDFunc" 
<Syst OldName = "WtH_XS_QCDscale" 
<Syst OldName = "WtZ_XS" 
<Syst OldName = "Wt_DS_tthbb" 
<Syst OldName = "Wt_PS_tthbb" 
<Syst OldName = "Wt_Rad_tthbb" 
<Syst OldName = "Zjets_XS_tthbblj" 
<Syst OldName = "fakes_boost_ejets_tthbblj" 
<Syst OldName = "fakes_boost_mujets_tthbblj" 
<Syst OldName = "fakes_ejets_norm_5j_tthbblj" 
<Syst OldName = "fakes_ejets_norm_6j_tthbblj" 
<Syst OldName = "fakes_mujets_norm_5j_tthbblj" 
<Syst OldName = "fakes_mujets_norm_6j_tthbblj" 
<Syst OldName = "gamma_stat_ljets_BDT_5jtt2b_bin_0_tthbblj" 
<Syst OldName = "gamma_stat_ljets_BDT_5jtt2b_bin_1_tthbblj" 
<Syst OldName = "gamma_stat_ljets_BDT_5jtt2b_bin_2_tthbblj" 
<Syst OldName = "gamma_stat_ljets_BDT_5jtt2b_bin_3_tthbblj" 
<Syst OldName = "gamma_stat_ljets_BDT_5jtt2b_bin_4_tthbblj" 
<Syst OldName = "gamma_stat_ljets_BDT_5jtt2b_bin_5_tthbblj" 
<Syst OldName = "gamma_stat_ljets_BDT_5jtt2b_bin_6_tthbblj" 
<Syst OldName = "gamma_stat_ljets_BDT_5jtt2b_bin_7_tthbblj" 
<Syst OldName = "gamma_stat_ljets_BDT_5jttH_bin_0_tthbblj" 
<Syst OldName = "gamma_stat_ljets_BDT_5jttH_bin_1_tthbblj" 
<Syst OldName = "gamma_stat_ljets_BDT_5jttH_bin_2_tthbblj" 
<Syst OldName = "gamma_stat_ljets_BDT_5jttH_bin_3_tthbblj" 
<Syst OldName = "gamma_stat_ljets_BDT_5jttH_bin_4_tthbblj" 
<Syst OldName = "gamma_stat_ljets_BDT_5jttH_bin_5_tthbblj" 
<Syst OldName = "gamma_stat_ljets_BDT_5jttH_bin_6_tthbblj" 
<Syst OldName = "gamma_stat_ljets_BDT_5jttH_bin_7_tthbblj" 
<Syst OldName = "gamma_stat_ljets_BDT_boosted_bin_0_tthbblj" 
<Syst OldName = "gamma_stat_ljets_BDT_boosted_bin_1_tthbblj" 
<Syst OldName = "gamma_stat_ljets_BDT_boosted_bin_2_tthbblj" 
<Syst OldName = "gamma_stat_ljets_BDT_boosted_bin_3_tthbblj" 
<Syst OldName = "gamma_stat_ljets_BDT_boosted_bin_4_tthbblj" 
<Syst OldName = "gamma_stat_ljets_BDT_boosted_bin_5_tthbblj" 
<Syst OldName = "gamma_stat_ljets_BDT_boosted_bin_6_tthbblj" 
<Syst OldName = "gamma_stat_ljets_BDT_boosted_bin_7_tthbblj" 
<Syst OldName = "gamma_stat_ljets_BDT_ge6jtt2bHi_bin_0_tthbblj" 
<Syst OldName = "gamma_stat_ljets_BDT_ge6jtt2bHi_bin_1_tthbblj" 
<Syst OldName = "gamma_stat_ljets_BDT_ge6jtt2bHi_bin_2_tthbblj" 
<Syst OldName = "gamma_stat_ljets_BDT_ge6jtt2bHi_bin_3_tthbblj" 
<Syst OldName = "gamma_stat_ljets_BDT_ge6jtt2bHi_bin_4_tthbblj" 
<Syst OldName = "gamma_stat_ljets_BDT_ge6jtt2bHi_bin_5_tthbblj" 
<Syst OldName = "gamma_stat_ljets_BDT_ge6jtt2bHi_bin_6_tthbblj" 
<Syst OldName = "gamma_stat_ljets_BDT_ge6jtt2bHi_bin_7_tthbblj" 
<Syst OldName = "gamma_stat_ljets_BDT_ge6jtt2bLo_bin_0_tthbblj" 
<Syst OldName = "gamma_stat_ljets_BDT_ge6jtt2bLo_bin_1_tthbblj" 
<Syst OldName = "gamma_stat_ljets_BDT_ge6jtt2bLo_bin_2_tthbblj" 
<Syst OldName = "gamma_stat_ljets_BDT_ge6jtt2bLo_bin_3_tthbblj" 
<Syst OldName = "gamma_stat_ljets_BDT_ge6jtt2bLo_bin_4_tthbblj" 
<Syst OldName = "gamma_stat_ljets_BDT_ge6jtt2bLo_bin_5_tthbblj" 
<Syst OldName = "gamma_stat_ljets_BDT_ge6jtt2bLo_bin_6_tthbblj" 
<Syst OldName = "gamma_stat_ljets_BDT_ge6jtt2bLo_bin_7_tthbblj" 
<Syst OldName = "gamma_stat_ljets_BDT_ge6jttH_bin_0_tthbblj" 
<Syst OldName = "gamma_stat_ljets_BDT_ge6jttH_bin_1_tthbblj" 
<Syst OldName = "gamma_stat_ljets_BDT_ge6jttH_bin_2_tthbblj" 
<Syst OldName = "gamma_stat_ljets_BDT_ge6jttH_bin_3_tthbblj" 
<Syst OldName = "gamma_stat_ljets_BDT_ge6jttH_bin_4_tthbblj" 
<Syst OldName = "gamma_stat_ljets_BDT_ge6jttH_bin_5_tthbblj" 
<Syst OldName = "gamma_stat_ljets_BDT_ge6jttH_bin_6_tthbblj" 
<Syst OldName = "gamma_stat_ljets_BDT_ge6jttH_bin_7_tthbblj" 
<Syst OldName = "gamma_stat_ljets_HThad_5jttc_bin_0_tthbblj" 
<Syst OldName = "gamma_stat_ljets_HThad_5jttc_bin_1_tthbblj" 
<Syst OldName = "gamma_stat_ljets_HThad_5jttc_bin_2_tthbblj" 
<Syst OldName = "gamma_stat_ljets_HThad_5jttc_bin_3_tthbblj" 
<Syst OldName = "gamma_stat_ljets_HThad_5jttc_bin_4_tthbblj" 
<Syst OldName = "gamma_stat_ljets_HThad_5jttc_bin_5_tthbblj" 
<Syst OldName = "gamma_stat_ljets_HThad_ge6jttc_bin_0_tthbblj" 
<Syst OldName = "gamma_stat_ljets_HThad_ge6jttc_bin_1_tthbblj" 
<Syst OldName = "gamma_stat_ljets_HThad_ge6jttc_bin_2_tthbblj" 
<Syst OldName = "gamma_stat_ljets_HThad_ge6jttc_bin_3_tthbblj" 
<Syst OldName = "gamma_stat_ljets_HThad_ge6jttc_bin_4_tthbblj" 
<Syst OldName = "gamma_stat_ljets_HThad_ge6jttc_bin_5_tthbblj" 
<Syst OldName = "gamma_stat_ljets_HThad_ge6jttc_bin_6_tthbblj" 
<Syst OldName = "gamma_stat_ljets_HThad_ge6jttc_bin_7_tthbblj" 
<Syst OldName = "singletop_Wt_XS" 
<Syst OldName = "singletop_schan_XS_tthbblj" 
<Syst OldName = "singletop_tchan_PS_tthbblj" 
<Syst OldName = "singletop_tchan_Rad_tthbblj" 
<Syst OldName = "singletop_tchan_XS_tthbblj" 
<Syst OldName = "tHjb_XS_PDFunc" 
<Syst OldName = "tHjb_XS_QCDscale" 
<Syst OldName = "tZjb_XS_QCDscale" 
<Syst OldName = "tt3b_XS" 
<Syst OldName = "ttH_PS" 
<Syst OldName = "ttH_XS_PDFunc" 
<Syst OldName = "ttH_XS_QCDscale" 
<Syst OldName = "ttWW_XS_QCDscale" 
<Syst OldName = "ttW_Gen" 
<Syst OldName = "ttW_XS_PDFunc" 
<Syst OldName = "ttW_XS_QCDscale" 
<Syst OldName = "ttZ_Gen" 
<Syst OldName = "ttZ_XS_PDFunc" 
<Syst OldName = "ttZ_XS_QCDscale" 
<Syst OldName = "tt_XS" 
<Syst OldName = "ttb_4F5Fshape" 
<Syst OldName = "ttb_CSS_KIN" 
<Syst OldName = "ttb_Gen" 
<Syst OldName = "ttb_MPI" 
<Syst OldName = "ttb_MPI_factor" 
<Syst OldName = "ttb_PS" 
<Syst OldName = "ttb_Q_CMMPS" 
<Syst OldName = "ttb_Rad" 
<Syst OldName = "ttb_glosoft" 
<Syst OldName = "ttb_norm" 
<Syst OldName = "ttb_scalechoice" 
<Syst OldName = "ttc_Gen" 
<Syst OldName = "ttc_MERW" 
<Syst OldName = "ttc_PS" 
<Syst OldName = "ttc_Rad" 
<Syst OldName = "ttc_norm" 
<Syst OldName = "ttlight_Gen" 
<Syst OldName = "ttlight_PS" 
<Syst OldName = "ttlight_Rad" 
<Syst OldName = "tttt_XS" 
